﻿Model: ,Oscilloscope DSO7034B
Serial Number:,MY49520216
Address: ,USBInstrument1
Date: ,2018-01-29 20:26:01

Sample Number,Time (s),2 (VOLT),
1,-0.5,0.0781250093132257,
2,-0.4995,0.0781250093132257,
3,-0.499,0.0937500111758709,
4,-0.4985,0.0781250093132257,
5,-0.498,0.0781250093132257,
6,-0.4975,0.0781250093132257,
7,-0.497,0.0781250093132257,
8,-0.4965,0.0781250093132257,
9,-0.496,0.0625000074505806,
10,-0.4955,0.0781250093132257,
11,-0.495,0.0781250093132257,
12,-0.4945,0.0781250093132257,
13,-0.494,0.0625000074505806,
14,-0.4935,0.0625000074505806,
15,-0.493,0.0468750055879354,
16,-0.4925,0.0468750055879354,
17,-0.492,0.0468750055879354,
18,-0.4915,0.0625000074505806,
19,-0.491,0.0625000074505806,
20,-0.4905,0.0625000074505806,
21,-0.49,0.0625000074505806,
22,-0.4895,0.0625000074505806,
23,-0.489,0.0625000074505806,
24,-0.4885,0.0625000074505806,
25,-0.488,0.0781250093132257,
26,-0.4875,0.0781250093132257,
27,-0.487,0.0781250093132257,
28,-0.4865,0.0781250093132257,
29,-0.486,0.0781250093132257,
30,-0.4855,0.0781250093132257,
31,-0.485,0.0781250093132257,
32,-0.4845,0.0937500111758709,
33,-0.484,0.0781250093132257,
34,-0.4835,0.0781250093132257,
35,-0.483,0.0781250093132257,
36,-0.4825,0.0625000074505806,
37,-0.482,0.0781250093132257,
38,-0.4815,0.0781250093132257,
39,-0.481,0.0781250093132257,
40,-0.4805,0.0781250093132257,
41,-0.48,0.0625000074505806,
42,-0.4795,0.0937500111758709,
43,-0.479,0.0781250093132257,
44,-0.4785,0.0781250093132257,
45,-0.478,0.0625000074505806,
46,-0.4775,0.0625000074505806,
47,-0.477,0.0625000074505806,
48,-0.4765,0.0468750055879354,
49,-0.476,0.0781250093132257,
50,-0.4755,0.0625000074505806,
51,-0.475,0.0625000074505806,
52,-0.4745,0.0781250093132257,
53,-0.474,0.0781250093132257,
54,-0.4735,0.0625000074505806,
55,-0.473,0.0781250093132257,
56,-0.4725,0.0781250093132257,
57,-0.472,0.0781250093132257,
58,-0.4715,0.0625000074505806,
59,-0.471,0.0625000074505806,
60,-0.4705,0.0625000074505806,
61,-0.47,0.0781250093132257,
62,-0.4695,0.0937500111758709,
63,-0.469,0.0781250093132257,
64,-0.4685,0.0937500111758709,
65,-0.468,0.0781250093132257,
66,-0.4675,0.0781250093132257,
67,-0.467,0.109375013038516,
68,-0.4665,0.0781250093132257,
69,-0.466,0.0781250093132257,
70,-0.4655,0.0781250093132257,
71,-0.465,0.0625000074505806,
72,-0.4645,0.0625000074505806,
73,-0.464,0.0781250093132257,
74,-0.4635,0.0937500111758709,
75,-0.463,0.0781250093132257,
76,-0.4625,0.0625000074505806,
77,-0.462,0.0625000074505806,
78,-0.4615,0.0781250093132257,
79,-0.461,0.0625000074505806,
80,-0.4605,0.0468750055879354,
81,-0.46,0.0468750055879354,
82,-0.4595,0.0625000074505806,
83,-0.459,0.0468750055879354,
84,-0.4585,0.0468750055879354,
85,-0.458,0.0468750055879354,
86,-0.4575,0.0468750055879354,
87,-0.457,0.0468750055879354,
88,-0.4565,0.0468750055879354,
89,-0.456,0.0625000074505806,
90,-0.4555,0.0468750055879354,
91,-0.455,0.0468750055879354,
92,-0.4545,0.0625000074505806,
93,-0.454,0.0625000074505806,
94,-0.4535,0.0781250093132257,
95,-0.453,0.0781250093132257,
96,-0.4525,0.0625000074505806,
97,-0.452,0.0781250093132257,
98,-0.4515,0.0781250093132257,
99,-0.451,0.0781250093132257,
100,-0.4505,0.0781250093132257,
101,-0.45,0.0937500111758709,
102,-0.4495,0.0937500111758709,
103,-0.449,0.109375013038516,
104,-0.4485,0.0781250093132257,
105,-0.448,0.0781250093132257,
106,-0.4475,0.0781250093132257,
107,-0.447,0.0937500111758709,
108,-0.4465,0.0937500111758709,
109,-0.446,0.0937500111758709,
110,-0.4455,0.0781250093132257,
111,-0.445,0.0781250093132257,
112,-0.4445,0.0937500111758709,
113,-0.444,0.0781250093132257,
114,-0.4435,0.0781250093132257,
115,-0.443,0.0625000074505806,
116,-0.4425,0.0625000074505806,
117,-0.442,0.0781250093132257,
118,-0.4415,0.0468750055879354,
119,-0.441,0.0781250093132257,
120,-0.4405,0.0781250093132257,
121,-0.44,0.0781250093132257,
122,-0.4395,0.0781250093132257,
123,-0.439,0.0625000074505806,
124,-0.4385,0.0937500111758709,
125,-0.438,0.109375013038516,
126,-0.4375,0.109375013038516,
127,-0.437,0.109375013038516,
128,-0.4365,0.0937500111758709,
129,-0.436,0.109375013038516,
130,-0.4355,0.125000014901161,
131,-0.435,0.140625016763806,
132,-0.4345,0.140625016763806,
133,-0.434,0.156250018626451,
134,-0.4335,0.140625016763806,
135,-0.433,0.125000014901161,
136,-0.4325,0.140625016763806,
137,-0.432,0.140625016763806,
138,-0.4315,0.156250018626451,
139,-0.431,0.156250018626451,
140,-0.4305,0.140625016763806,
141,-0.43,0.140625016763806,
142,-0.4295,0.140625016763806,
143,-0.429,0.140625016763806,
144,-0.4285,0.140625016763806,
145,-0.428,0.125000014901161,
146,-0.4275,0.109375013038516,
147,-0.427,0.125000014901161,
148,-0.4265,0.156250018626451,
149,-0.426,0.156250018626451,
150,-0.4255,0.125000014901161,
151,-0.425,0.140625016763806,
152,-0.4245,0.140625016763806,
153,-0.424,0.125000014901161,
154,-0.4235,0.125000014901161,
155,-0.423,0.109375013038516,
156,-0.4225,0.140625016763806,
157,-0.422,0.156250018626451,
158,-0.4215,0.140625016763806,
159,-0.421,0.125000014901161,
160,-0.4205,0.156250018626451,
161,-0.42,0.125000014901161,
162,-0.4195,0.125000014901161,
163,-0.419,0.140625016763806,
164,-0.4185,0.125000014901161,
165,-0.418,0.140625016763806,
166,-0.4175,0.156250018626451,
167,-0.417,0.156250018626451,
168,-0.4165,0.171875020489097,
169,-0.416,0.156250018626451,
170,-0.4155,0.156250018626451,
171,-0.415,0.125000014901161,
172,-0.4145,0.125000014901161,
173,-0.414,0.125000014901161,
174,-0.4135,0.140625016763806,
175,-0.413,0.156250018626451,
176,-0.4125,0.125000014901161,
177,-0.412,0.140625016763806,
178,-0.4115,0.140625016763806,
179,-0.411,0.140625016763806,
180,-0.4105,0.109375013038516,
181,-0.41,0.125000014901161,
182,-0.4095,0.125000014901161,
183,-0.409,0.109375013038516,
184,-0.4085,0.125000014901161,
185,-0.408,0.140625016763806,
186,-0.4075,0.125000014901161,
187,-0.407,0.140625016763806,
188,-0.4065,0.109375013038516,
189,-0.406,0.125000014901161,
190,-0.4055,0.140625016763806,
191,-0.405,0.125000014901161,
192,-0.4045,0.125000014901161,
193,-0.404,0.140625016763806,
194,-0.4035,0.140625016763806,
195,-0.403,0.171875020489097,
196,-0.4025,0.171875020489097,
197,-0.402,0.156250018626451,
198,-0.4015,0.156250018626451,
199,-0.401,0.156250018626451,
200,-0.4005,0.156250018626451,
201,-0.4,0.140625016763806,
202,-0.3995,0.156250018626451,
203,-0.399,0.156250018626451,
204,-0.3985,0.156250018626451,
205,-0.398,0.140625016763806,
206,-0.3975,0.171875020489097,
207,-0.397,0.156250018626451,
208,-0.3965,0.156250018626451,
209,-0.396,0.125000014901161,
210,-0.3955,0.140625016763806,
211,-0.395,0.140625016763806,
212,-0.3945,0.140625016763806,
213,-0.394,0.109375013038516,
214,-0.3935,0.125000014901161,
215,-0.393,0.125000014901161,
216,-0.3925,0.125000014901161,
217,-0.392,0.156250018626451,
218,-0.3915,0.140625016763806,
219,-0.391,0.125000014901161,
220,-0.3905,0.125000014901161,
221,-0.39,0.125000014901161,
222,-0.3895,0.125000014901161,
223,-0.389,0.125000014901161,
224,-0.3885,0.140625016763806,
225,-0.388,0.156250018626451,
226,-0.3875,0.140625016763806,
227,-0.387,0.156250018626451,
228,-0.3865,0.140625016763806,
229,-0.386,0.140625016763806,
230,-0.3855,0.171875020489097,
231,-0.385,0.171875020489097,
232,-0.3845,0.156250018626451,
233,-0.384,0.156250018626451,
234,-0.3835,0.156250018626451,
235,-0.383,0.171875020489097,
236,-0.3825,0.156250018626451,
237,-0.382,0.171875020489097,
238,-0.3815,0.171875020489097,
239,-0.381,0.171875020489097,
240,-0.3805,0.171875020489097,
241,-0.38,0.156250018626451,
242,-0.3795,0.156250018626451,
243,-0.379,0.156250018626451,
244,-0.3785,0.171875020489097,
245,-0.378,0.140625016763806,
246,-0.3775,0.156250018626451,
247,-0.377,0.140625016763806,
248,-0.3765,0.156250018626451,
249,-0.376,0.156250018626451,
250,-0.3755,0.140625016763806,
251,-0.375,0.156250018626451,
252,-0.3745,0.156250018626451,
253,-0.374,0.171875020489097,
254,-0.3735,0.156250018626451,
255,-0.373,0.156250018626451,
256,-0.3725,0.171875020489097,
257,-0.372,0.156250018626451,
258,-0.3715,0.187500022351742,
259,-0.371,0.187500022351742,
260,-0.3705,0.171875020489097,
261,-0.37,0.203125024214387,
262,-0.3695,0.203125024214387,
263,-0.369,0.203125024214387,
264,-0.3685,0.187500022351742,
265,-0.368,0.187500022351742,
266,-0.3675,0.187500022351742,
267,-0.367,0.218750026077032,
268,-0.3665,0.171875020489097,
269,-0.366,0.187500022351742,
270,-0.3655,0.203125024214387,
271,-0.365,0.171875020489097,
272,-0.3645,0.171875020489097,
273,-0.364,0.187500022351742,
274,-0.3635,0.203125024214387,
275,-0.363,0.234375027939677,
276,-0.3625,0.250000029802322,
277,-0.362,0.281250033527613,
278,-0.3615,0.265625031664968,
279,-0.361,0.265625031664968,
280,-0.3605,0.265625031664968,
281,-0.36,0.265625031664968,
282,-0.3595,0.250000029802322,
283,-0.359,0.218750026077032,
284,-0.3585,0.250000029802322,
285,-0.358,0.218750026077032,
286,-0.3575,0.234375027939677,
287,-0.357,0.203125024214387,
288,-0.3565,0.218750026077032,
289,-0.356,0.187500022351742,
290,-0.3555,0.218750026077032,
291,-0.355,0.203125024214387,
292,-0.3545,0.187500022351742,
293,-0.354,0.203125024214387,
294,-0.3535,0.187500022351742,
295,-0.353,0.203125024214387,
296,-0.3525,0.203125024214387,
297,-0.352,0.265625031664968,
298,-0.3515,0.265625031664968,
299,-0.351,0.250000029802322,
300,-0.3505,0.281250033527613,
301,-0.35,0.234375027939677,
302,-0.3495,0.234375027939677,
303,-0.349,0.218750026077032,
304,-0.3485,0.250000029802322,
305,-0.348,0.265625031664968,
306,-0.3475,0.250000029802322,
307,-0.347,0.218750026077032,
308,-0.3465,0.234375027939677,
309,-0.346,0.250000029802322,
310,-0.3455,0.234375027939677,
311,-0.345,0.265625031664968,
312,-0.3445,0.250000029802322,
313,-0.344,0.234375027939677,
314,-0.3435,0.234375027939677,
315,-0.343,0.234375027939677,
316,-0.3425,0.203125024214387,
317,-0.342,0.203125024214387,
318,-0.3415,0.203125024214387,
319,-0.341,0.203125024214387,
320,-0.3405,0.203125024214387,
321,-0.34,0.187500022351742,
322,-0.3395,0.187500022351742,
323,-0.339,0.187500022351742,
324,-0.3385,0.187500022351742,
325,-0.338,0.218750026077032,
326,-0.3375,0.234375027939677,
327,-0.337,0.234375027939677,
328,-0.3365,0.218750026077032,
329,-0.336,0.218750026077032,
330,-0.3355,0.203125024214387,
331,-0.335,0.218750026077032,
332,-0.3345,0.218750026077032,
333,-0.334,0.203125024214387,
334,-0.3335,0.203125024214387,
335,-0.333,0.203125024214387,
336,-0.3325,0.203125024214387,
337,-0.332,0.203125024214387,
338,-0.3315,0.218750026077032,
339,-0.331,0.265625031664968,
340,-0.3305,0.312500037252903,
341,-0.33,0.312500037252903,
342,-0.3295,0.312500037252903,
343,-0.329,0.281250033527613,
344,-0.3285,0.265625031664968,
345,-0.328,0.281250033527613,
346,-0.3275,0.281250033527613,
347,-0.327,0.250000029802322,
348,-0.3265,0.250000029802322,
349,-0.326,0.203125024214387,
350,-0.3255,0.203125024214387,
351,-0.325,0.218750026077032,
352,-0.3245,0.218750026077032,
353,-0.324,0.171875020489097,
354,-0.3235,0.187500022351742,
355,-0.323,0.171875020489097,
356,-0.3225,0.203125024214387,
357,-0.322,0.187500022351742,
358,-0.3215,0.187500022351742,
359,-0.321,0.203125024214387,
360,-0.3205,0.218750026077032,
361,-0.32,0.203125024214387,
362,-0.3195,0.203125024214387,
363,-0.319,0.203125024214387,
364,-0.3185,0.203125024214387,
365,-0.318,0.234375027939677,
366,-0.3175,0.234375027939677,
367,-0.317,0.203125024214387,
368,-0.3165,0.203125024214387,
369,-0.316,0.203125024214387,
370,-0.3155,0.203125024214387,
371,-0.315,0.203125024214387,
372,-0.3145,0.218750026077032,
373,-0.314,0.187500022351742,
374,-0.3135,0.187500022351742,
375,-0.313,0.203125024214387,
376,-0.3125,0.203125024214387,
377,-0.312,0.187500022351742,
378,-0.3115,0.203125024214387,
379,-0.311,0.187500022351742,
380,-0.3105,0.156250018626451,
381,-0.31,0.218750026077032,
382,-0.3095,0.203125024214387,
383,-0.309,0.187500022351742,
384,-0.3085,0.203125024214387,
385,-0.308,0.171875020489097,
386,-0.3075,0.187500022351742,
387,-0.307,0.203125024214387,
388,-0.3065,0.187500022351742,
389,-0.306,0.218750026077032,
390,-0.3055,0.203125024214387,
391,-0.305,0.218750026077032,
392,-0.3045,0.203125024214387,
393,-0.304,0.203125024214387,
394,-0.3035,0.218750026077032,
395,-0.303,0.234375027939677,
396,-0.3025,0.218750026077032,
397,-0.302,0.218750026077032,
398,-0.3015,0.218750026077032,
399,-0.301,0.234375027939677,
400,-0.3005,0.234375027939677,
401,-0.3,0.203125024214387,
402,-0.2995,0.218750026077032,
403,-0.299,0.203125024214387,
404,-0.2985,0.218750026077032,
405,-0.298,0.203125024214387,
406,-0.2975,0.218750026077032,
407,-0.297,0.234375027939677,
408,-0.2965,0.203125024214387,
409,-0.296,0.187500022351742,
410,-0.2955,0.203125024214387,
411,-0.295,0.218750026077032,
412,-0.2945,0.187500022351742,
413,-0.294,0.187500022351742,
414,-0.2935,0.203125024214387,
415,-0.293,0.187500022351742,
416,-0.2925,0.203125024214387,
417,-0.292,0.218750026077032,
418,-0.2915,0.171875020489097,
419,-0.291,0.203125024214387,
420,-0.2905,0.203125024214387,
421,-0.29,0.187500022351742,
422,-0.2895,0.187500022351742,
423,-0.289,0.187500022351742,
424,-0.2885,0.203125024214387,
425,-0.288,0.187500022351742,
426,-0.2875,0.250000029802322,
427,-0.287,0.234375027939677,
428,-0.2865,0.218750026077032,
429,-0.286,0.218750026077032,
430,-0.2855,0.234375027939677,
431,-0.285,0.234375027939677,
432,-0.2845,0.250000029802322,
433,-0.284,0.234375027939677,
434,-0.2835,0.234375027939677,
435,-0.283,0.218750026077032,
436,-0.2825,0.250000029802322,
437,-0.282,0.234375027939677,
438,-0.2815,0.234375027939677,
439,-0.281,0.250000029802322,
440,-0.2805,0.265625031664968,
441,-0.28,0.265625031664968,
442,-0.2795,0.234375027939677,
443,-0.279,0.234375027939677,
444,-0.2785,0.250000029802322,
445,-0.278,0.250000029802322,
446,-0.2775,0.218750026077032,
447,-0.277,0.234375027939677,
448,-0.2765,0.265625031664968,
449,-0.276,0.250000029802322,
450,-0.2755,0.265625031664968,
451,-0.275,0.265625031664968,
452,-0.2745,0.250000029802322,
453,-0.274,0.265625031664968,
454,-0.2735,0.250000029802322,
455,-0.273,0.234375027939677,
456,-0.2725,0.250000029802322,
457,-0.272,0.250000029802322,
458,-0.2715,0.234375027939677,
459,-0.271,0.234375027939677,
460,-0.2705,0.218750026077032,
461,-0.27,0.250000029802322,
462,-0.2695,0.218750026077032,
463,-0.269,0.234375027939677,
464,-0.2685,0.218750026077032,
465,-0.268,0.234375027939677,
466,-0.2675,0.250000029802322,
467,-0.267,0.234375027939677,
468,-0.2665,0.218750026077032,
469,-0.266,0.218750026077032,
470,-0.2655,0.218750026077032,
471,-0.265,0.218750026077032,
472,-0.2645,0.203125024214387,
473,-0.264,0.203125024214387,
474,-0.2635,0.203125024214387,
475,-0.263,0.203125024214387,
476,-0.2625,0.203125024214387,
477,-0.262,0.218750026077032,
478,-0.2615,0.234375027939677,
479,-0.261,0.234375027939677,
480,-0.2605,0.218750026077032,
481,-0.26,0.203125024214387,
482,-0.2595,0.203125024214387,
483,-0.259,0.203125024214387,
484,-0.2585,0.187500022351742,
485,-0.258,0.187500022351742,
486,-0.2575,0.234375027939677,
487,-0.257,0.218750026077032,
488,-0.2565,0.203125024214387,
489,-0.256,0.203125024214387,
490,-0.2555,0.218750026077032,
491,-0.255,0.171875020489097,
492,-0.2545,0.203125024214387,
493,-0.254,0.234375027939677,
494,-0.2535,0.203125024214387,
495,-0.253,0.203125024214387,
496,-0.2525,0.203125024214387,
497,-0.252,0.203125024214387,
498,-0.2515,0.218750026077032,
499,-0.251,0.218750026077032,
500,-0.2505,0.218750026077032,
501,-0.25,0.250000029802322,
502,-0.2495,0.218750026077032,
503,-0.249,0.250000029802322,
504,-0.2485,0.218750026077032,
505,-0.248,0.234375027939677,
506,-0.2475,0.250000029802322,
507,-0.247,0.218750026077032,
508,-0.2465,0.203125024214387,
509,-0.246,0.203125024214387,
510,-0.2455,0.203125024214387,
511,-0.245,0.187500022351742,
512,-0.2445,0.218750026077032,
513,-0.244,0.218750026077032,
514,-0.2435,0.203125024214387,
515,-0.243,0.203125024214387,
516,-0.2425,0.187500022351742,
517,-0.242,0.187500022351742,
518,-0.2415,0.171875020489097,
519,-0.241,0.171875020489097,
520,-0.2405,0.171875020489097,
521,-0.24,0.187500022351742,
522,-0.2395,0.171875020489097,
523,-0.239,0.187500022351742,
524,-0.2385,0.171875020489097,
525,-0.238,0.156250018626451,
526,-0.2375,0.171875020489097,
527,-0.237,0.171875020489097,
528,-0.2365,0.203125024214387,
529,-0.236,0.203125024214387,
530,-0.2355,0.187500022351742,
531,-0.235,0.203125024214387,
532,-0.2345,0.218750026077032,
533,-0.234,0.203125024214387,
534,-0.2335,0.234375027939677,
535,-0.233,0.203125024214387,
536,-0.2325,0.234375027939677,
537,-0.232,0.218750026077032,
538,-0.2315,0.234375027939677,
539,-0.231,0.218750026077032,
540,-0.2305,0.234375027939677,
541,-0.23,0.234375027939677,
542,-0.2295,0.203125024214387,
543,-0.229,0.218750026077032,
544,-0.2285,0.218750026077032,
545,-0.228,0.234375027939677,
546,-0.2275,0.250000029802322,
547,-0.227,0.234375027939677,
548,-0.2265,0.218750026077032,
549,-0.226,0.234375027939677,
550,-0.2255,0.250000029802322,
551,-0.225,0.234375027939677,
552,-0.2245,0.265625031664968,
553,-0.224,0.265625031664968,
554,-0.2235,0.281250033527613,
555,-0.223,0.250000029802322,
556,-0.2225,0.234375027939677,
557,-0.222,0.250000029802322,
558,-0.2215,0.234375027939677,
559,-0.221,0.265625031664968,
560,-0.2205,0.265625031664968,
561,-0.22,0.265625031664968,
562,-0.2195,0.250000029802322,
563,-0.219,0.250000029802322,
564,-0.2185,0.265625031664968,
565,-0.218,0.281250033527613,
566,-0.2175,0.281250033527613,
567,-0.217,0.281250033527613,
568,-0.2165,0.296875035390258,
569,-0.216,0.281250033527613,
570,-0.2155,0.281250033527613,
571,-0.215,0.265625031664968,
572,-0.2145,0.281250033527613,
573,-0.214,0.281250033527613,
574,-0.2135,0.265625031664968,
575,-0.213,0.265625031664968,
576,-0.2125,0.281250033527613,
577,-0.212,0.265625031664968,
578,-0.2115,0.265625031664968,
579,-0.211,0.265625031664968,
580,-0.2105,0.265625031664968,
581,-0.21,0.250000029802322,
582,-0.2095,0.250000029802322,
583,-0.209,0.265625031664968,
584,-0.2085,0.250000029802322,
585,-0.208,0.250000029802322,
586,-0.2075,0.265625031664968,
587,-0.207,0.265625031664968,
588,-0.2065,0.250000029802322,
589,-0.206,0.265625031664968,
590,-0.2055,0.265625031664968,
591,-0.205,0.265625031664968,
592,-0.2045,0.296875035390258,
593,-0.204,0.296875035390258,
594,-0.2035,0.296875035390258,
595,-0.203,0.265625031664968,
596,-0.2025,0.281250033527613,
597,-0.202,0.296875035390258,
598,-0.2015,0.281250033527613,
599,-0.201,0.296875035390258,
600,-0.2005,0.296875035390258,
601,-0.2,0.312500037252903,
602,-0.1995,0.312500037252903,
603,-0.199,0.328125039115548,
604,-0.1985,0.312500037252903,
605,-0.198,0.312500037252903,
606,-0.1975,0.296875035390258,
607,-0.197,0.296875035390258,
608,-0.1965,0.312500037252903,
609,-0.196,0.328125039115548,
610,-0.1955,0.312500037252903,
611,-0.195,0.312500037252903,
612,-0.1945,0.296875035390258,
613,-0.194,0.312500037252903,
614,-0.1935,0.296875035390258,
615,-0.193,0.312500037252903,
616,-0.1925,0.296875035390258,
617,-0.192,0.296875035390258,
618,-0.1915,0.296875035390258,
619,-0.191,0.296875035390258,
620,-0.1905,0.312500037252903,
621,-0.19,0.312500037252903,
622,-0.1895,0.343750040978193,
623,-0.189,0.328125039115548,
624,-0.1885,0.328125039115548,
625,-0.188,0.312500037252903,
626,-0.1875,0.328125039115548,
627,-0.187,0.343750040978193,
628,-0.1865,0.328125039115548,
629,-0.186,0.343750040978193,
630,-0.1855,0.328125039115548,
631,-0.185,0.359375042840838,
632,-0.1845,0.343750040978193,
633,-0.184,0.328125039115548,
634,-0.1835,0.343750040978193,
635,-0.183,0.359375042840838,
636,-0.1825,0.328125039115548,
637,-0.182,0.343750040978193,
638,-0.1815,0.343750040978193,
639,-0.181,0.359375042840838,
640,-0.1805,0.359375042840838,
641,-0.18,0.359375042840838,
642,-0.1795,0.343750040978193,
643,-0.179,0.343750040978193,
644,-0.1785,0.343750040978193,
645,-0.178,0.359375042840838,
646,-0.1775,0.359375042840838,
647,-0.177,0.359375042840838,
648,-0.1765,0.359375042840838,
649,-0.176,0.375000044703484,
650,-0.1755,0.375000044703484,
651,-0.175,0.359375042840838,
652,-0.1745,0.359375042840838,
653,-0.174,0.359375042840838,
654,-0.1735,0.328125039115548,
655,-0.173,0.328125039115548,
656,-0.1725,0.359375042840838,
657,-0.172,0.359375042840838,
658,-0.1715,0.359375042840838,
659,-0.171,0.343750040978193,
660,-0.1705,0.390625046566129,
661,-0.17,0.375000044703484,
662,-0.1695,0.375000044703484,
663,-0.169,0.343750040978193,
664,-0.1685,0.359375042840838,
665,-0.168,0.375000044703484,
666,-0.1675,0.359375042840838,
667,-0.167,0.359375042840838,
668,-0.1665,0.359375042840838,
669,-0.166,0.343750040978193,
670,-0.1655,0.328125039115548,
671,-0.165,0.296875035390258,
672,-0.1645,0.328125039115548,
673,-0.164,0.312500037252903,
674,-0.1635,0.312500037252903,
675,-0.163,0.328125039115548,
676,-0.1625,0.312500037252903,
677,-0.162,0.296875035390258,
678,-0.1615,0.281250033527613,
679,-0.161,0.328125039115548,
680,-0.1605,0.296875035390258,
681,-0.16,0.296875035390258,
682,-0.1595,0.296875035390258,
683,-0.159,0.281250033527613,
684,-0.1585,0.296875035390258,
685,-0.158,0.281250033527613,
686,-0.1575,0.296875035390258,
687,-0.157,0.328125039115548,
688,-0.1565,0.328125039115548,
689,-0.156,0.328125039115548,
690,-0.1555,0.328125039115548,
691,-0.155,0.281250033527613,
692,-0.1545,0.312500037252903,
693,-0.154,0.343750040978193,
694,-0.1535,0.375000044703484,
695,-0.153,0.359375042840838,
696,-0.1525,0.343750040978193,
697,-0.152,0.343750040978193,
698,-0.1515,0.343750040978193,
699,-0.151,0.343750040978193,
700,-0.1505,0.328125039115548,
701,-0.15,0.328125039115548,
702,-0.1495,0.343750040978193,
703,-0.149,0.343750040978193,
704,-0.1485,0.328125039115548,
705,-0.148,0.359375042840838,
706,-0.1475,0.375000044703484,
707,-0.147,0.375000044703484,
708,-0.1465,0.375000044703484,
709,-0.146,0.343750040978193,
710,-0.1455,0.375000044703484,
711,-0.145,0.359375042840838,
712,-0.1445,0.343750040978193,
713,-0.144,0.359375042840838,
714,-0.1435,0.343750040978193,
715,-0.143,0.343750040978193,
716,-0.1425,0.343750040978193,
717,-0.142,0.359375042840838,
718,-0.1415,0.343750040978193,
719,-0.141,0.328125039115548,
720,-0.1405,0.328125039115548,
721,-0.14,0.343750040978193,
722,-0.1395,0.359375042840838,
723,-0.139,0.375000044703484,
724,-0.1385,0.359375042840838,
725,-0.138,0.343750040978193,
726,-0.1375,0.359375042840838,
727,-0.137,0.343750040978193,
728,-0.1365,0.328125039115548,
729,-0.136,0.343750040978193,
730,-0.1355,0.343750040978193,
731,-0.135,0.328125039115548,
732,-0.1345,0.343750040978193,
733,-0.134,0.343750040978193,
734,-0.1335,0.359375042840838,
735,-0.133,0.375000044703484,
736,-0.1325,0.359375042840838,
737,-0.132,0.343750040978193,
738,-0.1315,0.359375042840838,
739,-0.131,0.343750040978193,
740,-0.1305,0.359375042840838,
741,-0.13,0.375000044703484,
742,-0.1295,0.359375042840838,
743,-0.129,0.343750040978193,
744,-0.1285,0.328125039115548,
745,-0.128,0.312500037252903,
746,-0.1275,0.328125039115548,
747,-0.127,0.328125039115548,
748,-0.1265,0.312500037252903,
749,-0.126,0.312500037252903,
750,-0.1255,0.328125039115548,
751,-0.125,0.328125039115548,
752,-0.1245,0.328125039115548,
753,-0.124,0.343750040978193,
754,-0.1235,0.328125039115548,
755,-0.123,0.359375042840838,
756,-0.1225,0.328125039115548,
757,-0.122,0.312500037252903,
758,-0.1215,0.343750040978193,
759,-0.121,0.328125039115548,
760,-0.1205,0.312500037252903,
761,-0.12,0.328125039115548,
762,-0.1195,0.296875035390258,
763,-0.119,0.328125039115548,
764,-0.1185,0.343750040978193,
765,-0.118,0.343750040978193,
766,-0.1175,0.343750040978193,
767,-0.117,0.312500037252903,
768,-0.1165,0.312500037252903,
769,-0.116,0.343750040978193,
770,-0.1155,0.312500037252903,
771,-0.115,0.296875035390258,
772,-0.1145,0.343750040978193,
773,-0.114,0.312500037252903,
774,-0.1135,0.328125039115548,
775,-0.113,0.296875035390258,
776,-0.1125,0.296875035390258,
777,-0.112,0.312500037252903,
778,-0.1115,0.296875035390258,
779,-0.111,0.312500037252903,
780,-0.1105,0.312500037252903,
781,-0.11,0.312500037252903,
782,-0.1095,0.312500037252903,
783,-0.109,0.296875035390258,
784,-0.1085,0.312500037252903,
785,-0.108,0.296875035390258,
786,-0.1075,0.281250033527613,
787,-0.107,0.281250033527613,
788,-0.1065,0.281250033527613,
789,-0.106,0.281250033527613,
790,-0.1055,0.296875035390258,
791,-0.105,0.312500037252903,
792,-0.1045,0.296875035390258,
793,-0.104,0.296875035390258,
794,-0.1035,0.328125039115548,
795,-0.103,0.296875035390258,
796,-0.1025,0.296875035390258,
797,-0.102,0.328125039115548,
798,-0.1015,0.328125039115548,
799,-0.101,0.312500037252903,
800,-0.1005,0.312500037252903,
801,-0.1,0.343750040978193,
802,-0.0995,0.328125039115548,
803,-0.099,0.343750040978193,
804,-0.0985,0.312500037252903,
805,-0.098,0.328125039115548,
806,-0.0975,0.312500037252903,
807,-0.097,0.359375042840838,
808,-0.0965,0.328125039115548,
809,-0.096,0.328125039115548,
810,-0.0955,0.328125039115548,
811,-0.095,0.359375042840838,
812,-0.0945,0.328125039115548,
813,-0.094,0.312500037252903,
814,-0.0935,0.312500037252903,
815,-0.093,0.296875035390258,
816,-0.0925,0.296875035390258,
817,-0.092,0.281250033527613,
818,-0.0915,0.281250033527613,
819,-0.091,0.281250033527613,
820,-0.0905,0.265625031664968,
821,-0.09,0.250000029802322,
822,-0.0895,0.265625031664968,
823,-0.089,0.296875035390258,
824,-0.0885,0.265625031664968,
825,-0.088,0.250000029802322,
826,-0.0875,0.281250033527613,
827,-0.087,0.281250033527613,
828,-0.0865,0.281250033527613,
829,-0.086,0.265625031664968,
830,-0.0855,0.296875035390258,
831,-0.085,0.296875035390258,
832,-0.0845,0.328125039115548,
833,-0.084,0.312500037252903,
834,-0.0835,0.328125039115548,
835,-0.083,0.296875035390258,
836,-0.0825,0.312500037252903,
837,-0.082,0.312500037252903,
838,-0.0815,0.328125039115548,
839,-0.081,0.296875035390258,
840,-0.0805,0.265625031664968,
841,-0.08,0.281250033527613,
842,-0.0795,0.265625031664968,
843,-0.079,0.250000029802322,
844,-0.0785,0.250000029802322,
845,-0.078,0.250000029802322,
846,-0.0775,0.234375027939677,
847,-0.077,0.234375027939677,
848,-0.0765,0.234375027939677,
849,-0.076,0.234375027939677,
850,-0.0755,0.218750026077032,
851,-0.075,0.218750026077032,
852,-0.0745,0.218750026077032,
853,-0.074,0.234375027939677,
854,-0.0735,0.250000029802322,
855,-0.073,0.250000029802322,
856,-0.0725,0.234375027939677,
857,-0.072,0.234375027939677,
858,-0.0715,0.265625031664968,
859,-0.071,0.250000029802322,
860,-0.0705,0.218750026077032,
861,-0.07,0.250000029802322,
862,-0.0695,0.250000029802322,
863,-0.069,0.250000029802322,
864,-0.0685,0.250000029802322,
865,-0.068,0.265625031664968,
866,-0.0675,0.265625031664968,
867,-0.067,0.265625031664968,
868,-0.0665,0.265625031664968,
869,-0.066,0.250000029802322,
870,-0.0655,0.265625031664968,
871,-0.065,0.296875035390258,
872,-0.0645,0.281250033527613,
873,-0.064,0.296875035390258,
874,-0.0635,0.296875035390258,
875,-0.063,0.250000029802322,
876,-0.0625,0.250000029802322,
877,-0.062,0.250000029802322,
878,-0.0615,0.250000029802322,
879,-0.061,0.234375027939677,
880,-0.0605,0.218750026077032,
881,-0.06,0.250000029802322,
882,-0.0595,0.234375027939677,
883,-0.059,0.234375027939677,
884,-0.0585,0.250000029802322,
885,-0.058,0.281250033527613,
886,-0.0575,0.250000029802322,
887,-0.057,0.265625031664968,
888,-0.0565,0.250000029802322,
889,-0.056,0.250000029802322,
890,-0.0555,0.281250033527613,
891,-0.055,0.281250033527613,
892,-0.0545,0.281250033527613,
893,-0.054,0.265625031664968,
894,-0.0535,0.296875035390258,
895,-0.053,0.265625031664968,
896,-0.0525,0.281250033527613,
897,-0.052,0.296875035390258,
898,-0.0515,0.296875035390258,
899,-0.051,0.296875035390258,
900,-0.0505,0.281250033527613,
901,-0.05,0.296875035390258,
902,-0.0495,0.328125039115548,
903,-0.049,0.312500037252903,
904,-0.0485,0.312500037252903,
905,-0.048,0.312500037252903,
906,-0.0475,0.281250033527613,
907,-0.047,0.312500037252903,
908,-0.0465,0.312500037252903,
909,-0.046,0.296875035390258,
910,-0.0455,0.281250033527613,
911,-0.045,0.265625031664968,
912,-0.0445,0.265625031664968,
913,-0.044,0.281250033527613,
914,-0.0435,0.250000029802322,
915,-0.043,0.265625031664968,
916,-0.0425,0.296875035390258,
917,-0.042,0.265625031664968,
918,-0.0415,0.265625031664968,
919,-0.041,0.281250033527613,
920,-0.0405,0.281250033527613,
921,-0.04,0.281250033527613,
922,-0.0395,0.265625031664968,
923,-0.039,0.296875035390258,
924,-0.0385,0.281250033527613,
925,-0.038,0.312500037252903,
926,-0.0375,0.265625031664968,
927,-0.037,0.296875035390258,
928,-0.0365,0.281250033527613,
929,-0.036,0.296875035390258,
930,-0.0355,0.312500037252903,
931,-0.035,0.312500037252903,
932,-0.0345,0.312500037252903,
933,-0.034,0.328125039115548,
934,-0.0335,0.328125039115548,
935,-0.033,0.343750040978193,
936,-0.0325,0.343750040978193,
937,-0.032,0.328125039115548,
938,-0.0315,0.375000044703484,
939,-0.031,0.359375042840838,
940,-0.0305,0.312500037252903,
941,-0.03,0.343750040978193,
942,-0.0295,0.328125039115548,
943,-0.029,0.328125039115548,
944,-0.0285,0.343750040978193,
945,-0.028,0.328125039115548,
946,-0.0275,0.343750040978193,
947,-0.027,0.328125039115548,
948,-0.0265,0.328125039115548,
949,-0.026,0.328125039115548,
950,-0.0255,0.328125039115548,
951,-0.025,0.328125039115548,
952,-0.0245,0.296875035390258,
953,-0.024,0.328125039115548,
954,-0.0235,0.359375042840838,
955,-0.023,0.375000044703484,
956,-0.0225,0.328125039115548,
957,-0.022,0.328125039115548,
958,-0.0215,0.328125039115548,
959,-0.021,0.359375042840838,
960,-0.0205,0.343750040978193,
961,-0.02,0.343750040978193,
962,-0.0195,0.343750040978193,
963,-0.019,0.328125039115548,
964,-0.0185,0.328125039115548,
965,-0.018,0.328125039115548,
966,-0.0175,0.343750040978193,
967,-0.017,0.375000044703484,
968,-0.0165,0.375000044703484,
969,-0.016,0.375000044703484,
970,-0.0155,0.390625046566129,
971,-0.015,0.359375042840838,
972,-0.0145,0.343750040978193,
973,-0.014,0.343750040978193,
974,-0.0135,0.375000044703484,
975,-0.013,0.343750040978193,
976,-0.0125,0.375000044703484,
977,-0.012,0.390625046566129,
978,-0.0115,0.390625046566129,
979,-0.011,0.406250048428774,
980,-0.0105,0.375000044703484,
981,-0.01,0.375000044703484,
982,-0.00950000000000001,0.390625046566129,
983,-0.00900000000000001,0.359375042840838,
984,-0.00850000000000001,0.343750040978193,
985,-0.00800000000000001,0.359375042840838,
986,-0.00750000000000001,0.343750040978193,
987,-0.00700000000000001,0.328125039115548,
988,-0.00650000000000001,0.343750040978193,
989,-0.00600000000000001,0.343750040978193,
990,-0.0055,0.343750040978193,
991,-0.005,0.375000044703484,
992,-0.0045,0.359375042840838,
993,-0.004,0.343750040978193,
994,-0.0035,0.359375042840838,
995,-0.003,0.375000044703484,
996,-0.0025,0.375000044703484,
997,-0.002,0.359375042840838,
998,-0.0015,0.375000044703484,
999,-0.001,0.390625046566129,
1000,-0.0005,0.406250048428774,
1001,0,0.406250048428774,
1002,0.000500000000000056,0.875000104308128,
1003,0.001,0.968750115483999,
1004,0.00150000000000006,0.953125113621354,
1005,0.002,1.00000011920929,
1006,0.00250000000000006,1.01562512107193,
1007,0.003,0.984375117346644,
1008,0.00350000000000006,1.03125012293458,
1009,0.004,1.00000011920929,
1010,0.00450000000000006,1.01562512107193,
1011,0.005,1.03125012293458,
1012,0.00550000000000006,1.01562512107193,
1013,0.00600000000000001,1.03125012293458,
1014,0.00650000000000006,1.01562512107193,
1015,0.00700000000000001,1.03125012293458,
1016,0.00750000000000006,1.01562512107193,
1017,0.00800000000000001,1.01562512107193,
1018,0.00850000000000006,1.01562512107193,
1019,0.00900000000000001,1.01562512107193,
1020,0.00950000000000006,1.01562512107193,
1021,0.01,1.00000011920929,
1022,0.0105000000000001,1.01562512107193,
1023,0.011,1.03125012293458,
1024,0.0115000000000001,1.00000011920929,
1025,0.012,1.01562512107193,
1026,0.0125,1.01562512107193,
1027,0.013,1.01562512107193,
1028,0.0135,1.01562512107193,
1029,0.014,1.01562512107193,
1030,0.0145,1.03125012293458,
1031,0.015,1.01562512107193,
1032,0.0155,1.01562512107193,
1033,0.016,1.03125012293458,
1034,0.0165,1.00000011920929,
1035,0.017,1.01562512107193,
1036,0.0175,1.01562512107193,
1037,0.018,1.01562512107193,
1038,0.0185,1.01562512107193,
1039,0.019,0.984375117346644,
1040,0.0195,1.01562512107193,
1041,0.02,0.984375117346644,
1042,0.0205,1.00000011920929,
1043,0.021,1.00000011920929,
1044,0.0215,0.968750115483999,
1045,0.022,0.984375117346644,
1046,0.0225,0.984375117346644,
1047,0.023,0.984375117346644,
1048,0.0235,0.984375117346644,
1049,0.024,0.968750115483999,
1050,0.0245,0.968750115483999,
1051,0.025,0.968750115483999,
1052,0.0255,0.953125113621354,
1053,0.026,0.968750115483999,
1054,0.0265,0.968750115483999,
1055,0.027,0.968750115483999,
1056,0.0275,0.953125113621354,
1057,0.028,0.953125113621354,
1058,0.0285,0.937500111758709,
1059,0.029,0.937500111758709,
1060,0.0295,0.953125113621354,
1061,0.03,0.937500111758709,
1062,0.0305,0.937500111758709,
1063,0.031,0.921875109896064,
1064,0.0315,0.921875109896064,
1065,0.032,0.906250108033419,
1066,0.0325,0.906250108033419,
1067,0.033,0.921875109896064,
1068,0.0335,0.906250108033419,
1069,0.034,0.906250108033419,
1070,0.0345,0.906250108033419,
1071,0.035,0.890625106170774,
1072,0.0355,0.890625106170774,
1073,0.036,0.859375102445483,
1074,0.0365,0.859375102445483,
1075,0.037,0.875000104308128,
1076,0.0375,0.875000104308128,
1077,0.038,0.875000104308128,
1078,0.0385,0.859375102445483,
1079,0.039,0.843750100582838,
1080,0.0395,0.828125098720193,
1081,0.04,0.828125098720193,
1082,0.0405,0.812500096857548,
1083,0.041,0.796875094994903,
1084,0.0415,0.812500096857548,
1085,0.042,0.765625091269612,
1086,0.0425,0.765625091269612,
1087,0.043,0.765625091269612,
1088,0.0435,0.750000089406967,
1089,0.044,0.765625091269612,
1090,0.0445,0.734375087544322,
1091,0.045,0.687500081956387,
1092,0.0455,0.687500081956387,
1093,0.046,0.671875080093741,
1094,0.0465,0.656250078231096,
1095,0.047,0.609375072643161,
1096,0.0475,0.609375072643161,
1097,0.048,0.593750070780516,
1098,0.0485,0.593750070780516,
1099,0.049,0.578125068917871,
1100,0.0495,0.54687506519258,
1101,0.05,0.531250063329935,
1102,0.0505,0.531250063329935,
1103,0.051,0.484375057742,
1104,0.0515,0.500000059604645,
1105,0.052,0.484375057742,
1106,0.0525,0.468750055879354,
1107,0.053,0.437500052154064,
1108,0.0535,0.437500052154064,
1109,0.054,0.421875050291419,
1110,0.0545,0.421875050291419,
1111,0.055,0.406250048428774,
1112,0.0555,0.390625046566129,
1113,0.0560000000000001,0.390625046566129,
1114,0.0565,0.359375042840838,
1115,0.0570000000000001,0.359375042840838,
1116,0.0575,0.343750040978193,
1117,0.0580000000000001,0.328125039115548,
1118,0.0585,0.328125039115548,
1119,0.0590000000000001,0.312500037252903,
1120,0.0595,0.296875035390258,
1121,0.0600000000000001,0.281250033527613,
1122,0.0605,0.296875035390258,
1123,0.0610000000000001,0.281250033527613,
1124,0.0615,0.296875035390258,
1125,0.0620000000000001,0.265625031664968,
1126,0.0625,0.265625031664968,
1127,0.0630000000000001,0.265625031664968,
1128,0.0635,0.234375027939677,
1129,0.0640000000000001,0.250000029802322,
1130,0.0645,0.234375027939677,
1131,0.0650000000000001,0.218750026077032,
1132,0.0655,0.234375027939677,
1133,0.0660000000000001,0.218750026077032,
1134,0.0665,0.203125024214387,
1135,0.0670000000000001,0.218750026077032,
1136,0.0675,0.218750026077032,
1137,0.0680000000000001,0.203125024214387,
1138,0.0685,0.187500022351742,
1139,0.0690000000000001,0.171875020489097,
1140,0.0695,0.187500022351742,
1141,0.0700000000000001,0.171875020489097,
1142,0.0705,0.171875020489097,
1143,0.0710000000000001,0.156250018626451,
1144,0.0715,0.171875020489097,
1145,0.0720000000000001,0.171875020489097,
1146,0.0725,0.156250018626451,
1147,0.0730000000000001,0.140625016763806,
1148,0.0735,0.140625016763806,
1149,0.0740000000000001,0.140625016763806,
1150,0.0745,0.140625016763806,
1151,0.0750000000000001,0.156250018626451,
1152,0.0755,0.125000014901161,
1153,0.0760000000000001,0.109375013038516,
1154,0.0765,0.125000014901161,
1155,0.077,0.109375013038516,
1156,0.0775,0.109375013038516,
1157,0.078,0.109375013038516,
1158,0.0785,0.109375013038516,
1159,0.079,0.0937500111758709,
1160,0.0795,0.0937500111758709,
1161,0.08,0.0937500111758709,
1162,0.0805,0.0937500111758709,
1163,0.081,0.0937500111758709,
1164,0.0815,0.0937500111758709,
1165,0.082,0.109375013038516,
1166,0.0825,0.109375013038516,
1167,0.083,0.0781250093132257,
1168,0.0835,0.0781250093132257,
1169,0.084,0.0781250093132257,
1170,0.0845,0.0625000074505806,
1171,0.085,0.0937500111758709,
1172,0.0855,0.0781250093132257,
1173,0.086,0.0625000074505806,
1174,0.0865,0.0781250093132257,
1175,0.087,0.0625000074505806,
1176,0.0875,0.0625000074505806,
1177,0.088,0.0781250093132257,
1178,0.0885,0.0781250093132257,
1179,0.089,0.0625000074505806,
1180,0.0895,0.0468750055879354,
1181,0.09,0.0468750055879354,
1182,0.0905,0.0468750055879354,
1183,0.091,0.0468750055879354,
1184,0.0915,0.0312500037252903,
1185,0.092,0.0468750055879354,
1186,0.0925,0.0312500037252903,
1187,0.093,0.0312500037252903,
1188,0.0935,0.0312500037252903,
1189,0.094,0.0312500037252903,
1190,0.0945,0.0468750055879354,
1191,0.095,0.0312500037252903,
1192,0.0955,0.0468750055879354,
1193,0.096,0.0468750055879354,
1194,0.0965,0.0312500037252903,
1195,0.097,0.0312500037252903,
1196,0.0975,0.0468750055879354,
1197,0.098,0.0312500037252903,
1198,0.0985,0.0468750055879354,
1199,0.099,0.0312500037252903,
1200,0.0995,0.0156250018626451,
1201,0.1,0.0312500037252903,
1202,0.1005,0.0312500037252903,
1203,0.101,0.0468750055879354,
1204,0.1015,0.0312500037252903,
1205,0.102,0.0312500037252903,
1206,0.1025,0.0156250018626451,
1207,0.103,0.0312500037252903,
1208,0.1035,0.0156250018626451,
1209,0.104,0.0468750055879354,
1210,0.1045,0.0312500037252903,
1211,0.105,0.0312500037252903,
1212,0.1055,0.0156250018626451,
1213,0.106,0.0156250018626451,
1214,0.1065,0,
1215,0.107,0.0156250018626451,
1216,0.1075,0.0156250018626451,
1217,0.108,0.0156250018626451,
1218,0.1085,0.0312500037252903,
1219,0.109,0.0156250018626451,
1220,0.1095,-0.0156250018626451,
1221,0.11,0,
1222,0.1105,0.0156250018626451,
1223,0.111,0.0156250018626451,
1224,0.1115,0.0156250018626451,
1225,0.112,0,
1226,0.1125,0.0156250018626451,
1227,0.113,0.0156250018626451,
1228,0.1135,0,
1229,0.114,0.0156250018626451,
1230,0.1145,0,
1231,0.115,0.0312500037252903,
1232,0.1155,0.0156250018626451,
1233,0.116,0.0156250018626451,
1234,0.1165,0,
1235,0.117,0.0156250018626451,
1236,0.1175,0.0156250018626451,
1237,0.118,-0.0156250018626451,
1238,0.1185,0.0156250018626451,
1239,0.119,-0.0156250018626451,
1240,0.1195,0.0156250018626451,
1241,0.12,0,
1242,0.1205,0.0156250018626451,
1243,0.121,0,
1244,0.1215,-0.0156250018626451,
1245,0.122,0,
1246,0.1225,0,
1247,0.123,0,
1248,0.1235,0.0156250018626451,
1249,0.124,0.0156250018626451,
1250,0.1245,-0.0156250018626451,
1251,0.125,-0.0156250018626451,
1252,0.1255,0.0156250018626451,
1253,0.126,0.0156250018626451,
1254,0.1265,-0.0156250018626451,
1255,0.127,-0.0156250018626451,
1256,0.1275,0,
1257,0.128,0.0156250018626451,
1258,0.1285,0,
1259,0.129,-0.0156250018626451,
1260,0.1295,0,
1261,0.13,0.0156250018626451,
1262,0.1305,0,
1263,0.131,0,
1264,0.1315,-0.0156250018626451,
1265,0.132,-0.0156250018626451,
1266,0.1325,0,
1267,0.133,0,
1268,0.1335,0.0156250018626451,
1269,0.134,-0.0156250018626451,
1270,0.1345,-0.0156250018626451,
1271,0.135,-0.0156250018626451,
1272,0.1355,0,
1273,0.136,0.0156250018626451,
1274,0.1365,-0.0156250018626451,
1275,0.137,0.0156250018626451,
1276,0.1375,0,
1277,0.138,0,
1278,0.1385,0,
1279,0.139,0,
1280,0.1395,-0.0156250018626451,
1281,0.14,-0.0156250018626451,
1282,0.1405,-0.0312500037252903,
1283,0.141,0,
1284,0.1415,-0.0156250018626451,
1285,0.142,-0.0312500037252903,
1286,0.1425,-0.0156250018626451,
1287,0.143,-0.0156250018626451,
1288,0.1435,-0.0156250018626451,
1289,0.144,0.0156250018626451,
1290,0.1445,-0.0156250018626451,
1291,0.145,-0.0156250018626451,
1292,0.1455,0,
1293,0.146,-0.0156250018626451,
1294,0.1465,-0.0156250018626451,
1295,0.147,-0.0156250018626451,
1296,0.1475,-0.0156250018626451,
1297,0.148,0,
1298,0.1485,-0.0156250018626451,
1299,0.149,-0.0156250018626451,
1300,0.1495,0,
1301,0.15,-0.0156250018626451,
1302,0.1505,0,
1303,0.151,0,
1304,0.1515,-0.0156250018626451,
1305,0.152,0,
1306,0.1525,0.0156250018626451,
1307,0.153,0,
1308,0.1535,-0.0156250018626451,
1309,0.154,0,
1310,0.1545,0,
1311,0.155,0,
1312,0.1555,-0.0156250018626451,
1313,0.156,-0.0156250018626451,
1314,0.1565,-0.0156250018626451,
1315,0.157,-0.0156250018626451,
1316,0.1575,-0.0312500037252903,
1317,0.158,-0.0156250018626451,
1318,0.1585,-0.0312500037252903,
1319,0.159,-0.0312500037252903,
1320,0.1595,-0.0312500037252903,
1321,0.16,-0.0156250018626451,
1322,0.1605,-0.0156250018626451,
1323,0.161,-0.0156250018626451,
1324,0.1615,-0.0156250018626451,
1325,0.162,-0.0156250018626451,
1326,0.1625,-0.0156250018626451,
1327,0.163,0,
1328,0.1635,-0.0312500037252903,
1329,0.164,-0.0156250018626451,
1330,0.1645,-0.0156250018626451,
1331,0.165,-0.0156250018626451,
1332,0.1655,-0.0312500037252903,
1333,0.166,-0.0312500037252903,
1334,0.1665,-0.0156250018626451,
1335,0.167,-0.0156250018626451,
1336,0.1675,-0.0156250018626451,
1337,0.168,-0.0156250018626451,
1338,0.1685,-0.0156250018626451,
1339,0.169,-0.0156250018626451,
1340,0.1695,-0.0156250018626451,
1341,0.17,-0.0156250018626451,
1342,0.1705,-0.0312500037252903,
1343,0.171,0,
1344,0.1715,0,
1345,0.172,-0.0156250018626451,
1346,0.1725,-0.0156250018626451,
1347,0.173,-0.0156250018626451,
1348,0.1735,-0.0156250018626451,
1349,0.174,-0.0156250018626451,
1350,0.1745,-0.0312500037252903,
1351,0.175,0,
1352,0.1755,-0.0312500037252903,
1353,0.176,-0.0468750055879354,
1354,0.1765,0,
1355,0.177,-0.0156250018626451,
1356,0.1775,-0.0312500037252903,
1357,0.178,-0.0156250018626451,
1358,0.1785,-0.0156250018626451,
1359,0.179,0,
1360,0.1795,0,
1361,0.18,-0.0156250018626451,
1362,0.1805,0,
1363,0.181,-0.0312500037252903,
1364,0.1815,-0.0312500037252903,
1365,0.182,-0.0156250018626451,
1366,0.1825,-0.0156250018626451,
1367,0.183,-0.0156250018626451,
1368,0.1835,-0.0156250018626451,
1369,0.184,0,
1370,0.1845,-0.0156250018626451,
1371,0.185,-0.0156250018626451,
1372,0.1855,-0.0156250018626451,
1373,0.186,-0.0156250018626451,
1374,0.1865,0,
1375,0.187,-0.0156250018626451,
1376,0.1875,-0.0156250018626451,
1377,0.188,0,
1378,0.1885,-0.0156250018626451,
1379,0.189,-0.0156250018626451,
1380,0.1895,-0.0156250018626451,
1381,0.19,-0.0156250018626451,
1382,0.1905,-0.0156250018626451,
1383,0.191,-0.0156250018626451,
1384,0.1915,0,
1385,0.192,-0.0312500037252903,
1386,0.1925,-0.0312500037252903,
1387,0.193,-0.0312500037252903,
1388,0.1935,-0.0156250018626451,
1389,0.194,0,
1390,0.1945,-0.0156250018626451,
1391,0.195,-0.0156250018626451,
1392,0.1955,-0.0156250018626451,
1393,0.196,0,
1394,0.1965,-0.0156250018626451,
1395,0.197,0,
1396,0.1975,-0.0156250018626451,
1397,0.198,0,
1398,0.1985,-0.0156250018626451,
1399,0.199,0,
1400,0.1995,0,
1401,0.2,-0.0156250018626451,
1402,0.2005,0,
1403,0.201,0,
1404,0.2015,0,
1405,0.202,-0.0156250018626451,
1406,0.2025,-0.0156250018626451,
1407,0.203,-0.0156250018626451,
1408,0.2035,-0.0156250018626451,
1409,0.204,-0.0156250018626451,
1410,0.2045,-0.0156250018626451,
1411,0.205,-0.0156250018626451,
1412,0.2055,-0.0312500037252903,
1413,0.206,0,
1414,0.2065,-0.0156250018626451,
1415,0.207,-0.0312500037252903,
1416,0.2075,-0.0312500037252903,
1417,0.208,-0.0156250018626451,
1418,0.2085,0,
1419,0.209,0.0156250018626451,
1420,0.2095,-0.0156250018626451,
1421,0.21,-0.0312500037252903,
1422,0.2105,-0.0156250018626451,
1423,0.211,-0.0312500037252903,
1424,0.2115,-0.0156250018626451,
1425,0.212,-0.0156250018626451,
1426,0.2125,-0.0156250018626451,
1427,0.213,-0.0156250018626451,
1428,0.2135,-0.0312500037252903,
1429,0.214,0,
1430,0.2145,-0.0312500037252903,
1431,0.215,-0.0156250018626451,
1432,0.2155,0,
1433,0.216,-0.0312500037252903,
1434,0.2165,-0.0312500037252903,
1435,0.217,0,
1436,0.2175,-0.0156250018626451,
1437,0.218,-0.0156250018626451,
1438,0.2185,-0.0156250018626451,
1439,0.219,0,
1440,0.2195,-0.0156250018626451,
1441,0.22,0,
1442,0.2205,0,
1443,0.221,0.0156250018626451,
1444,0.2215,-0.0156250018626451,
1445,0.222,0,
1446,0.2225,-0.0312500037252903,
1447,0.223,-0.0312500037252903,
1448,0.2235,-0.0312500037252903,
1449,0.224,-0.0156250018626451,
1450,0.2245,-0.0312500037252903,
1451,0.225,-0.0156250018626451,
1452,0.2255,-0.0156250018626451,
1453,0.226,-0.0156250018626451,
1454,0.2265,-0.0312500037252903,
1455,0.227,-0.0156250018626451,
1456,0.2275,-0.0312500037252903,
1457,0.228,-0.0156250018626451,
1458,0.2285,-0.0156250018626451,
1459,0.229,-0.0156250018626451,
1460,0.2295,-0.0312500037252903,
1461,0.23,-0.0156250018626451,
1462,0.2305,-0.0156250018626451,
1463,0.231,0,
1464,0.2315,-0.0156250018626451,
1465,0.232,-0.0156250018626451,
1466,0.2325,0,
1467,0.233,-0.0156250018626451,
1468,0.2335,-0.0312500037252903,
1469,0.234,-0.0156250018626451,
1470,0.2345,0,
1471,0.235,-0.0156250018626451,
1472,0.2355,-0.0156250018626451,
1473,0.236,-0.0156250018626451,
1474,0.2365,-0.0156250018626451,
1475,0.237,-0.0156250018626451,
1476,0.2375,0,
1477,0.238,-0.0156250018626451,
1478,0.2385,-0.0312500037252903,
1479,0.239,-0.0312500037252903,
1480,0.2395,-0.0156250018626451,
1481,0.24,-0.0468750055879354,
1482,0.2405,0,
1483,0.241,-0.0156250018626451,
1484,0.2415,-0.0156250018626451,
1485,0.242,-0.0156250018626451,
1486,0.2425,-0.0312500037252903,
1487,0.243,-0.0156250018626451,
1488,0.2435,0,
1489,0.244,-0.0156250018626451,
1490,0.2445,-0.0312500037252903,
1491,0.245,-0.0312500037252903,
1492,0.2455,-0.0312500037252903,
1493,0.246,-0.0156250018626451,
1494,0.2465,-0.0156250018626451,
1495,0.247,-0.0312500037252903,
1496,0.2475,-0.0156250018626451,
1497,0.248,-0.0156250018626451,
1498,0.2485,-0.0156250018626451,
1499,0.249,-0.0156250018626451,
1500,0.2495,-0.0156250018626451,
1501,0.25,0,
1502,0.2505,0,
1503,0.251,-0.0156250018626451,
1504,0.2515,-0.0312500037252903,
1505,0.252,0,
1506,0.2525,0,
1507,0.253,-0.0468750055879354,
1508,0.2535,-0.0312500037252903,
1509,0.254,0,
1510,0.2545,-0.0156250018626451,
1511,0.255,-0.0156250018626451,
1512,0.2555,-0.0156250018626451,
1513,0.256,-0.0156250018626451,
1514,0.2565,-0.0156250018626451,
1515,0.257,-0.0312500037252903,
1516,0.2575,-0.0156250018626451,
1517,0.258,0,
1518,0.2585,0,
1519,0.259,-0.0156250018626451,
1520,0.2595,-0.0156250018626451,
1521,0.26,-0.0468750055879354,
1522,0.2605,-0.0156250018626451,
1523,0.261,-0.0156250018626451,
1524,0.2615,-0.0312500037252903,
1525,0.262,-0.0156250018626451,
1526,0.2625,-0.0312500037252903,
1527,0.263,-0.0156250018626451,
1528,0.2635,-0.0312500037252903,
1529,0.264,-0.0156250018626451,
1530,0.2645,-0.0156250018626451,
1531,0.265,-0.0156250018626451,
1532,0.2655,-0.0156250018626451,
1533,0.266,-0.0156250018626451,
1534,0.2665,-0.0156250018626451,
1535,0.267,-0.0156250018626451,
1536,0.2675,-0.0156250018626451,
1537,0.268,-0.0156250018626451,
1538,0.2685,-0.0156250018626451,
1539,0.269,-0.0156250018626451,
1540,0.2695,0,
1541,0.27,-0.0156250018626451,
1542,0.2705,-0.0312500037252903,
1543,0.271,-0.0156250018626451,
1544,0.2715,-0.0156250018626451,
1545,0.272,-0.0156250018626451,
1546,0.2725,-0.0156250018626451,
1547,0.273,-0.0312500037252903,
1548,0.2735,-0.0312500037252903,
1549,0.274,-0.0156250018626451,
1550,0.2745,-0.0156250018626451,
1551,0.275,0,
1552,0.2755,-0.0156250018626451,
1553,0.276,0,
1554,0.2765,0,
1555,0.277,-0.0312500037252903,
1556,0.2775,-0.0312500037252903,
1557,0.278,-0.0312500037252903,
1558,0.2785,-0.0156250018626451,
1559,0.279,0,
1560,0.2795,-0.0156250018626451,
1561,0.28,-0.0312500037252903,
1562,0.2805,0,
1563,0.281,-0.0156250018626451,
1564,0.2815,-0.0312500037252903,
1565,0.282,-0.0156250018626451,
1566,0.2825,0,
1567,0.283,-0.0156250018626451,
1568,0.2835,-0.0312500037252903,
1569,0.284,-0.0156250018626451,
1570,0.2845,0,
1571,0.285,-0.0312500037252903,
1572,0.2855,-0.0156250018626451,
1573,0.286,0,
1574,0.2865,-0.0156250018626451,
1575,0.287,-0.0156250018626451,
1576,0.2875,-0.0156250018626451,
1577,0.288,-0.0156250018626451,
1578,0.2885,-0.0156250018626451,
1579,0.289,-0.0156250018626451,
1580,0.2895,-0.0312500037252903,
1581,0.29,-0.0312500037252903,
1582,0.2905,-0.0156250018626451,
1583,0.291,-0.0156250018626451,
1584,0.2915,-0.0312500037252903,
1585,0.292,-0.0156250018626451,
1586,0.2925,-0.0156250018626451,
1587,0.293,-0.0156250018626451,
1588,0.2935,-0.0312500037252903,
1589,0.294,-0.0156250018626451,
1590,0.2945,-0.0468750055879354,
1591,0.295,-0.0156250018626451,
1592,0.2955,-0.0312500037252903,
1593,0.296,-0.0156250018626451,
1594,0.2965,-0.0312500037252903,
1595,0.297,-0.0156250018626451,
1596,0.2975,-0.0156250018626451,
1597,0.298,-0.0312500037252903,
1598,0.2985,-0.0156250018626451,
1599,0.299,-0.0156250018626451,
1600,0.2995,0,
1601,0.3,0,
1602,0.3005,-0.0312500037252903,
1603,0.301,-0.0156250018626451,
1604,0.3015,-0.0156250018626451,
1605,0.302,0,
1606,0.3025,-0.0156250018626451,
1607,0.303,-0.0156250018626451,
1608,0.3035,-0.0156250018626451,
1609,0.304,0,
1610,0.3045,-0.0156250018626451,
1611,0.305,-0.0312500037252903,
1612,0.3055,-0.0156250018626451,
1613,0.306,-0.0156250018626451,
1614,0.3065,-0.0312500037252903,
1615,0.307,-0.0468750055879354,
1616,0.3075,-0.0312500037252903,
1617,0.308,-0.0312500037252903,
1618,0.3085,-0.0312500037252903,
1619,0.309,-0.0312500037252903,
1620,0.3095,-0.0312500037252903,
1621,0.31,-0.0156250018626451,
1622,0.3105,-0.0312500037252903,
1623,0.311,-0.0156250018626451,
1624,0.3115,-0.0312500037252903,
1625,0.312,-0.0312500037252903,
1626,0.3125,-0.0156250018626451,
1627,0.313,0,
1628,0.3135,0,
1629,0.314,-0.0312500037252903,
1630,0.3145,-0.0156250018626451,
1631,0.315,-0.0156250018626451,
1632,0.3155,-0.0156250018626451,
1633,0.316,0,
1634,0.3165,-0.0156250018626451,
1635,0.317,-0.0156250018626451,
1636,0.3175,0,
1637,0.318,-0.0156250018626451,
1638,0.3185,-0.0156250018626451,
1639,0.319,-0.0312500037252903,
1640,0.3195,-0.0312500037252903,
1641,0.32,0,
1642,0.3205,0,
1643,0.321,-0.0156250018626451,
1644,0.3215,-0.0312500037252903,
1645,0.322,-0.0156250018626451,
1646,0.3225,-0.0156250018626451,
1647,0.323,-0.0156250018626451,
1648,0.3235,-0.0156250018626451,
1649,0.324,-0.0156250018626451,
1650,0.3245,-0.0156250018626451,
1651,0.325,-0.0312500037252903,
1652,0.3255,-0.0312500037252903,
1653,0.326,-0.0156250018626451,
1654,0.3265,-0.0312500037252903,
1655,0.327,-0.0156250018626451,
1656,0.3275,-0.0312500037252903,
1657,0.328,-0.0156250018626451,
1658,0.3285,-0.0312500037252903,
1659,0.329,0,
1660,0.3295,-0.0156250018626451,
1661,0.33,-0.0312500037252903,
1662,0.3305,-0.0312500037252903,
1663,0.331,-0.0156250018626451,
1664,0.3315,-0.0156250018626451,
1665,0.332,0,
1666,0.3325,-0.0156250018626451,
1667,0.333,-0.0156250018626451,
1668,0.3335,-0.0312500037252903,
1669,0.334,0,
1670,0.3345,-0.0156250018626451,
1671,0.335,0,
1672,0.3355,0,
1673,0.336,-0.0312500037252903,
1674,0.3365,-0.0312500037252903,
1675,0.337,-0.0156250018626451,
1676,0.3375,-0.0468750055879354,
1677,0.338,-0.0312500037252903,
1678,0.3385,-0.0468750055879354,
1679,0.339,-0.0312500037252903,
1680,0.3395,-0.0156250018626451,
1681,0.34,-0.0468750055879354,
1682,0.3405,-0.0156250018626451,
1683,0.341,-0.0312500037252903,
1684,0.3415,-0.0468750055879354,
1685,0.342,-0.0156250018626451,
1686,0.3425,-0.0156250018626451,
1687,0.343,-0.0312500037252903,
1688,0.3435,-0.0312500037252903,
1689,0.344,-0.0156250018626451,
1690,0.3445,-0.0156250018626451,
1691,0.345,-0.0156250018626451,
1692,0.3455,0,
1693,0.346,-0.0312500037252903,
1694,0.3465,-0.0312500037252903,
1695,0.347,-0.0312500037252903,
1696,0.3475,-0.0156250018626451,
1697,0.348,-0.0156250018626451,
1698,0.3485,-0.0156250018626451,
1699,0.349,0,
1700,0.3495,-0.0156250018626451,
1701,0.35,-0.0156250018626451,
1702,0.3505,0,
1703,0.351,-0.0156250018626451,
1704,0.3515,-0.0156250018626451,
1705,0.352,-0.0156250018626451,
1706,0.3525,-0.0312500037252903,
1707,0.353,-0.0312500037252903,
1708,0.3535,-0.0156250018626451,
1709,0.354,-0.0468750055879354,
1710,0.3545,-0.0312500037252903,
1711,0.355,-0.0156250018626451,
1712,0.3555,-0.0156250018626451,
1713,0.356,-0.0312500037252903,
1714,0.3565,-0.0156250018626451,
1715,0.357,-0.0156250018626451,
1716,0.3575,-0.0312500037252903,
1717,0.358,-0.0312500037252903,
1718,0.3585,-0.0156250018626451,
1719,0.359,-0.0312500037252903,
1720,0.3595,-0.0312500037252903,
1721,0.36,-0.0468750055879354,
1722,0.3605,-0.0468750055879354,
1723,0.361,-0.0468750055879354,
1724,0.3615,-0.0156250018626451,
1725,0.362,-0.0312500037252903,
1726,0.3625,-0.0156250018626451,
1727,0.363,-0.0312500037252903,
1728,0.3635,-0.0156250018626451,
1729,0.364,-0.0312500037252903,
1730,0.3645,-0.0156250018626451,
1731,0.365,0,
1732,0.3655,0,
1733,0.366,-0.0312500037252903,
1734,0.3665,-0.0156250018626451,
1735,0.367,-0.0156250018626451,
1736,0.3675,0.0156250018626451,
1737,0.368,-0.0156250018626451,
1738,0.3685,0,
1739,0.369,-0.0312500037252903,
1740,0.3695,-0.0156250018626451,
1741,0.37,-0.0156250018626451,
1742,0.3705,-0.0468750055879354,
1743,0.371,-0.0156250018626451,
1744,0.3715,-0.0156250018626451,
1745,0.372,-0.0156250018626451,
1746,0.3725,-0.0312500037252903,
1747,0.373,-0.0156250018626451,
1748,0.3735,-0.0312500037252903,
1749,0.374,-0.0312500037252903,
1750,0.3745,-0.0312500037252903,
1751,0.375,-0.0312500037252903,
1752,0.3755,-0.0312500037252903,
1753,0.376,-0.0312500037252903,
1754,0.3765,-0.0468750055879354,
1755,0.377,-0.0312500037252903,
1756,0.3775,-0.0312500037252903,
1757,0.378,-0.0156250018626451,
1758,0.3785,-0.0312500037252903,
1759,0.379,-0.0156250018626451,
1760,0.3795,-0.0468750055879354,
1761,0.38,-0.0468750055879354,
1762,0.3805,-0.0312500037252903,
1763,0.381,0,
1764,0.3815,-0.0156250018626451,
1765,0.382,-0.0156250018626451,
1766,0.3825,-0.0156250018626451,
1767,0.383,0,
1768,0.3835,-0.0156250018626451,
1769,0.384,-0.0156250018626451,
1770,0.3845,-0.0468750055879354,
1771,0.385,-0.0156250018626451,
1772,0.3855,-0.0312500037252903,
1773,0.386,-0.0312500037252903,
1774,0.3865,0,
1775,0.387,-0.0156250018626451,
1776,0.3875,0.0156250018626451,
1777,0.388,-0.0156250018626451,
1778,0.3885,-0.0156250018626451,
1779,0.389,-0.0156250018626451,
1780,0.3895,-0.0156250018626451,
1781,0.39,-0.0468750055879354,
1782,0.3905,-0.0312500037252903,
1783,0.391,-0.0312500037252903,
1784,0.3915,-0.0312500037252903,
1785,0.392,-0.0156250018626451,
1786,0.3925,-0.0468750055879354,
1787,0.393,-0.0156250018626451,
1788,0.3935,-0.0312500037252903,
1789,0.394,-0.0312500037252903,
1790,0.3945,-0.0312500037252903,
1791,0.395,-0.0312500037252903,
1792,0.3955,-0.0156250018626451,
1793,0.396,-0.0468750055879354,
1794,0.3965,0,
1795,0.397,-0.0312500037252903,
1796,0.3975,-0.0156250018626451,
1797,0.398,-0.0312500037252903,
1798,0.3985,-0.0312500037252903,
1799,0.399,0,
1800,0.3995,-0.0312500037252903,
1801,0.4,0,
1802,0.4005,0,
1803,0.401,0,
1804,0.4015,-0.0156250018626451,
1805,0.402,0.0156250018626451,
1806,0.4025,-0.0312500037252903,
1807,0.403,-0.0156250018626451,
1808,0.4035,0,
1809,0.404,-0.0312500037252903,
1810,0.4045,-0.0156250018626451,
1811,0.405,-0.0312500037252903,
1812,0.4055,-0.0156250018626451,
1813,0.406,-0.0156250018626451,
1814,0.4065,-0.0312500037252903,
1815,0.407,-0.0468750055879354,
1816,0.4075,-0.0312500037252903,
1817,0.408,-0.0312500037252903,
1818,0.4085,-0.0312500037252903,
1819,0.409,-0.0156250018626451,
1820,0.4095,-0.0156250018626451,
1821,0.41,-0.0312500037252903,
1822,0.4105,-0.0156250018626451,
1823,0.411,-0.0468750055879354,
1824,0.4115,-0.0312500037252903,
1825,0.412,-0.0156250018626451,
1826,0.4125,-0.0468750055879354,
1827,0.413,-0.0156250018626451,
1828,0.4135,-0.0312500037252903,
1829,0.414,-0.0312500037252903,
1830,0.4145,-0.0156250018626451,
1831,0.415,-0.0156250018626451,
1832,0.4155,-0.0156250018626451,
1833,0.416,-0.0156250018626451,
1834,0.4165,0,
1835,0.417,-0.0156250018626451,
1836,0.4175,0,
1837,0.418,-0.0156250018626451,
1838,0.4185,-0.0156250018626451,
1839,0.419,-0.0156250018626451,
1840,0.4195,0,
1841,0.42,0,
1842,0.4205,-0.0156250018626451,
1843,0.421,-0.0156250018626451,
1844,0.4215,-0.0312500037252903,
1845,0.422,-0.0156250018626451,
1846,0.4225,-0.0312500037252903,
1847,0.423,-0.0312500037252903,
1848,0.4235,-0.0312500037252903,
1849,0.424,-0.0312500037252903,
1850,0.4245,-0.0312500037252903,
1851,0.425,-0.0156250018626451,
1852,0.4255,-0.0468750055879354,
1853,0.426,-0.0156250018626451,
1854,0.4265,-0.0468750055879354,
1855,0.427,-0.0625000074505806,
1856,0.4275,-0.0312500037252903,
1857,0.428,-0.0312500037252903,
1858,0.4285,-0.0312500037252903,
1859,0.429,-0.0156250018626451,
1860,0.4295,-0.0156250018626451,
1861,0.43,-0.0312500037252903,
1862,0.4305,-0.0156250018626451,
1863,0.431,-0.0156250018626451,
1864,0.4315,-0.0156250018626451,
1865,0.432,-0.0156250018626451,
1866,0.4325,-0.0156250018626451,
1867,0.433,-0.0156250018626451,
1868,0.4335,0,
1869,0.434,-0.0156250018626451,
1870,0.4345,-0.0156250018626451,
1871,0.435,-0.0156250018626451,
1872,0.4355,-0.0312500037252903,
1873,0.436,-0.0156250018626451,
1874,0.4365,-0.0156250018626451,
1875,0.437,-0.0156250018626451,
1876,0.4375,-0.0156250018626451,
1877,0.438,-0.0312500037252903,
1878,0.4385,-0.0468750055879354,
1879,0.439,-0.0468750055879354,
1880,0.4395,-0.0156250018626451,
1881,0.44,-0.0156250018626451,
1882,0.4405,-0.0312500037252903,
1883,0.441,-0.0312500037252903,
1884,0.4415,-0.0312500037252903,
1885,0.442,-0.0468750055879354,
1886,0.4425,-0.0468750055879354,
1887,0.443,-0.0312500037252903,
1888,0.4435,-0.0468750055879354,
1889,0.444,-0.0156250018626451,
1890,0.4445,-0.0312500037252903,
1891,0.445,-0.0312500037252903,
1892,0.4455,-0.0156250018626451,
1893,0.446,-0.0156250018626451,
1894,0.4465,-0.0156250018626451,
1895,0.447,-0.0156250018626451,
1896,0.4475,0,
1897,0.448,-0.0156250018626451,
1898,0.4485,-0.0156250018626451,
1899,0.449,-0.0156250018626451,
1900,0.4495,0,
1901,0.45,0,
1902,0.4505,-0.0312500037252903,
1903,0.451,-0.0156250018626451,
1904,0.4515,-0.0312500037252903,
1905,0.452,-0.0156250018626451,
1906,0.4525,0,
1907,0.453,-0.0156250018626451,
1908,0.4535,-0.0156250018626451,
1909,0.454,0,
1910,0.4545,-0.0156250018626451,
1911,0.455,-0.0156250018626451,
1912,0.4555,-0.0312500037252903,
1913,0.456,-0.0312500037252903,
1914,0.4565,-0.0312500037252903,
1915,0.457,-0.0312500037252903,
1916,0.4575,-0.0625000074505806,
1917,0.458,-0.0156250018626451,
1918,0.4585,0,
1919,0.459,-0.0312500037252903,
1920,0.4595,-0.0312500037252903,
1921,0.46,-0.0312500037252903,
1922,0.4605,-0.0468750055879354,
1923,0.461,-0.0312500037252903,
1924,0.4615,-0.0156250018626451,
1925,0.462,-0.0156250018626451,
1926,0.4625,-0.0312500037252903,
1927,0.463,-0.0312500037252903,
1928,0.4635,-0.0156250018626451,
1929,0.464,0,
1930,0.4645,-0.0156250018626451,
1931,0.465,-0.0156250018626451,
1932,0.4655,0.0156250018626451,
1933,0.466,-0.0156250018626451,
1934,0.4665,-0.0312500037252903,
1935,0.467,-0.0312500037252903,
1936,0.4675,-0.0156250018626451,
1937,0.468,0,
1938,0.4685,-0.0312500037252903,
1939,0.469,0,
1940,0.4695,-0.0156250018626451,
1941,0.47,-0.0312500037252903,
1942,0.4705,-0.0312500037252903,
1943,0.471,-0.0468750055879354,
1944,0.4715,-0.0156250018626451,
1945,0.472,-0.0312500037252903,
1946,0.4725,-0.0156250018626451,
1947,0.473,-0.0156250018626451,
1948,0.4735,-0.0468750055879354,
1949,0.474,-0.0312500037252903,
1950,0.4745,-0.0468750055879354,
1951,0.475,-0.0312500037252903,
1952,0.4755,-0.0468750055879354,
1953,0.476,-0.0312500037252903,
1954,0.4765,-0.0312500037252903,
1955,0.477,-0.0468750055879354,
1956,0.4775,-0.0156250018626451,
1957,0.478,-0.0156250018626451,
1958,0.4785,-0.0156250018626451,
1959,0.479,-0.0312500037252903,
1960,0.4795,-0.0156250018626451,
1961,0.48,-0.0156250018626451,
1962,0.4805,-0.0156250018626451,
1963,0.481,-0.0312500037252903,
1964,0.4815,-0.0156250018626451,
1965,0.482,-0.0156250018626451,
1966,0.4825,-0.0156250018626451,
1967,0.483,-0.0156250018626451,
1968,0.4835,-0.0156250018626451,
1969,0.484,0,
1970,0.4845,0,
1971,0.485,-0.0312500037252903,
1972,0.4855,-0.0156250018626451,
1973,0.486,0,
1974,0.4865,-0.0312500037252903,
1975,0.487,-0.0312500037252903,
1976,0.4875,-0.0156250018626451,
1977,0.488,0,
1978,0.4885,-0.0312500037252903,
1979,0.489,-0.0312500037252903,
1980,0.4895,-0.0156250018626451,
1981,0.49,-0.0156250018626451,
1982,0.4905,-0.0312500037252903,
1983,0.491,-0.0156250018626451,
1984,0.4915,-0.0468750055879354,
1985,0.492,-0.0468750055879354,
1986,0.4925,-0.0312500037252903,
1987,0.493,-0.0312500037252903,
1988,0.4935,-0.0156250018626451,
1989,0.494,-0.0312500037252903,
1990,0.4945,-0.0156250018626451,
1991,0.495,-0.0312500037252903,
1992,0.4955,-0.0312500037252903,
1993,0.496,-0.0156250018626451,
1994,0.4965,-0.0312500037252903,
1995,0.497,-0.0156250018626451,
1996,0.4975,-0.0156250018626451,
1997,0.498,0,
1998,0.4985,-0.0156250018626451,
1999,0.499,0,
2000,0.4995,-0.0156250018626451,
