﻿Model: ,Oscilloscope DSO7034B
Serial Number:,MY49520216
Address: ,USBInstrument1
Date: ,2018-01-29 20:10:35

Sample Number,Time (s),2 (VOLT),
1,-0.5,-0.0312500037252903,
2,-0.4995,-0.0156250018626451,
3,-0.499,-0.0156250018626451,
4,-0.4985,-0.0312500037252903,
5,-0.498,-0.0156250018626451,
6,-0.4975,-0.0156250018626451,
7,-0.497,-0.0468750055879354,
8,-0.4965,-0.0156250018626451,
9,-0.496,-0.0468750055879354,
10,-0.4955,-0.0312500037252903,
11,-0.495,-0.0468750055879354,
12,-0.4945,-0.0312500037252903,
13,-0.494,-0.0312500037252903,
14,-0.4935,-0.0312500037252903,
15,-0.493,-0.0156250018626451,
16,-0.4925,-0.0625000074505806,
17,-0.492,-0.0312500037252903,
18,-0.4915,-0.0468750055879354,
19,-0.491,-0.0312500037252903,
20,-0.4905,-0.0468750055879354,
21,-0.49,-0.0468750055879354,
22,-0.4895,-0.0781250093132257,
23,-0.489,-0.0468750055879354,
24,-0.4885,-0.0312500037252903,
25,-0.488,-0.0312500037252903,
26,-0.4875,-0.0312500037252903,
27,-0.487,-0.0156250018626451,
28,-0.4865,-0.0468750055879354,
29,-0.486,-0.0312500037252903,
30,-0.4855,-0.0156250018626451,
31,-0.485,-0.0468750055879354,
32,-0.4845,-0.0312500037252903,
33,-0.484,-0.0156250018626451,
34,-0.4835,-0.0312500037252903,
35,-0.483,0,
36,-0.4825,-0.0312500037252903,
37,-0.482,-0.0156250018626451,
38,-0.4815,0,
39,-0.481,0,
40,-0.4805,-0.0156250018626451,
41,-0.48,0,
42,-0.4795,-0.0312500037252903,
43,-0.479,0,
44,-0.4785,-0.0156250018626451,
45,-0.478,-0.0312500037252903,
46,-0.4775,-0.0312500037252903,
47,-0.477,-0.0156250018626451,
48,-0.4765,-0.0156250018626451,
49,-0.476,-0.0312500037252903,
50,-0.4755,0,
51,-0.475,-0.0156250018626451,
52,-0.4745,-0.0312500037252903,
53,-0.474,-0.0312500037252903,
54,-0.4735,-0.0312500037252903,
55,-0.473,-0.0312500037252903,
56,-0.4725,-0.0156250018626451,
57,-0.472,-0.0468750055879354,
58,-0.4715,-0.0156250018626451,
59,-0.471,-0.0312500037252903,
60,-0.4705,0,
61,-0.47,-0.0312500037252903,
62,-0.4695,-0.0312500037252903,
63,-0.469,-0.0312500037252903,
64,-0.4685,-0.0156250018626451,
65,-0.468,-0.0156250018626451,
66,-0.4675,-0.0156250018626451,
67,-0.467,-0.0156250018626451,
68,-0.4665,0,
69,-0.466,0,
70,-0.4655,0,
71,-0.465,-0.0156250018626451,
72,-0.4645,0.0312500037252903,
73,-0.464,0,
74,-0.4635,0,
75,-0.463,-0.0312500037252903,
76,-0.4625,0,
77,-0.462,0.0156250018626451,
78,-0.4615,0,
79,-0.461,0.0156250018626451,
80,-0.4605,-0.0312500037252903,
81,-0.46,-0.0156250018626451,
82,-0.4595,-0.0156250018626451,
83,-0.459,-0.0312500037252903,
84,-0.4585,-0.0156250018626451,
85,-0.458,-0.0156250018626451,
86,-0.4575,-0.0156250018626451,
87,-0.457,-0.0312500037252903,
88,-0.4565,-0.0156250018626451,
89,-0.456,-0.0156250018626451,
90,-0.4555,0,
91,-0.455,0,
92,-0.4545,-0.0156250018626451,
93,-0.454,-0.0312500037252903,
94,-0.4535,0,
95,-0.453,-0.0312500037252903,
96,-0.4525,0,
97,-0.452,-0.0156250018626451,
98,-0.4515,0,
99,-0.451,-0.0156250018626451,
100,-0.4505,0,
101,-0.45,-0.0156250018626451,
102,-0.4495,-0.0312500037252903,
103,-0.449,0,
104,-0.4485,0.0156250018626451,
105,-0.448,0.0156250018626451,
106,-0.4475,0.0156250018626451,
107,-0.447,-0.0156250018626451,
108,-0.4465,-0.0156250018626451,
109,-0.446,0.0156250018626451,
110,-0.4455,-0.0156250018626451,
111,-0.445,0,
112,-0.4445,0,
113,-0.444,0,
114,-0.4435,0,
115,-0.443,0,
116,-0.4425,-0.0312500037252903,
117,-0.442,-0.0156250018626451,
118,-0.4415,-0.0156250018626451,
119,-0.441,0,
120,-0.4405,-0.0156250018626451,
121,-0.44,-0.0312500037252903,
122,-0.4395,0,
123,-0.439,0,
124,-0.4385,0,
125,-0.438,-0.0156250018626451,
126,-0.4375,0,
127,-0.437,-0.0156250018626451,
128,-0.4365,0,
129,-0.436,-0.0156250018626451,
130,-0.4355,0,
131,-0.435,0,
132,-0.4345,0,
133,-0.434,-0.0156250018626451,
134,-0.4335,-0.0156250018626451,
135,-0.433,0.0156250018626451,
136,-0.4325,-0.0156250018626451,
137,-0.432,0.0156250018626451,
138,-0.4315,0,
139,-0.431,-0.0156250018626451,
140,-0.4305,0.0156250018626451,
141,-0.43,-0.0156250018626451,
142,-0.4295,0,
143,-0.429,-0.0312500037252903,
144,-0.4285,-0.0156250018626451,
145,-0.428,0.0156250018626451,
146,-0.4275,-0.0156250018626451,
147,-0.427,-0.0156250018626451,
148,-0.4265,0,
149,-0.426,-0.0312500037252903,
150,-0.4255,0,
151,-0.425,-0.0312500037252903,
152,-0.4245,0,
153,-0.424,0,
154,-0.4235,-0.0156250018626451,
155,-0.423,-0.0312500037252903,
156,-0.4225,-0.0312500037252903,
157,-0.422,-0.0156250018626451,
158,-0.4215,-0.0312500037252903,
159,-0.421,-0.0156250018626451,
160,-0.4205,-0.0312500037252903,
161,-0.42,-0.0156250018626451,
162,-0.4195,-0.0312500037252903,
163,-0.419,-0.0156250018626451,
164,-0.4185,0.0156250018626451,
165,-0.418,-0.0156250018626451,
166,-0.4175,-0.0156250018626451,
167,-0.417,0,
168,-0.4165,-0.0156250018626451,
169,-0.416,0.0156250018626451,
170,-0.4155,0.0156250018626451,
171,-0.415,0,
172,-0.4145,0,
173,-0.414,-0.0156250018626451,
174,-0.4135,0.0312500037252903,
175,-0.413,0,
176,-0.4125,0.0156250018626451,
177,-0.412,0,
178,-0.4115,-0.0156250018626451,
179,-0.411,-0.0312500037252903,
180,-0.4105,-0.0156250018626451,
181,-0.41,0.0156250018626451,
182,-0.4095,-0.0156250018626451,
183,-0.409,-0.0156250018626451,
184,-0.4085,0,
185,-0.408,-0.0312500037252903,
186,-0.4075,-0.0312500037252903,
187,-0.407,-0.0468750055879354,
188,-0.4065,-0.0312500037252903,
189,-0.406,-0.0156250018626451,
190,-0.4055,-0.0156250018626451,
191,-0.405,-0.0312500037252903,
192,-0.4045,-0.0468750055879354,
193,-0.404,-0.0312500037252903,
194,-0.4035,-0.0156250018626451,
195,-0.403,-0.0156250018626451,
196,-0.4025,-0.0156250018626451,
197,-0.402,-0.0156250018626451,
198,-0.4015,0,
199,-0.401,0,
200,-0.4005,-0.0312500037252903,
201,-0.4,0,
202,-0.3995,-0.0156250018626451,
203,-0.399,0.0156250018626451,
204,-0.3985,0,
205,-0.398,0.0156250018626451,
206,-0.3975,0,
207,-0.397,0.0156250018626451,
208,-0.3965,0,
209,-0.396,0.0156250018626451,
210,-0.3955,0.0156250018626451,
211,-0.395,-0.0312500037252903,
212,-0.3945,-0.0156250018626451,
213,-0.394,-0.0156250018626451,
214,-0.3935,0,
215,-0.393,-0.0156250018626451,
216,-0.3925,-0.0156250018626451,
217,-0.392,-0.0312500037252903,
218,-0.3915,-0.0156250018626451,
219,-0.391,-0.0312500037252903,
220,-0.3905,-0.0156250018626451,
221,-0.39,-0.0312500037252903,
222,-0.3895,-0.0312500037252903,
223,-0.389,-0.0312500037252903,
224,-0.3885,-0.0156250018626451,
225,-0.388,-0.0156250018626451,
226,-0.3875,-0.0156250018626451,
227,-0.387,-0.0468750055879354,
228,-0.3865,0,
229,-0.386,-0.0156250018626451,
230,-0.3855,-0.0312500037252903,
231,-0.385,-0.0156250018626451,
232,-0.3845,-0.0156250018626451,
233,-0.384,-0.0156250018626451,
234,-0.3835,-0.0156250018626451,
235,-0.383,0,
236,-0.3825,-0.0156250018626451,
237,-0.382,-0.0156250018626451,
238,-0.3815,0,
239,-0.381,0.0312500037252903,
240,-0.3805,-0.0156250018626451,
241,-0.38,0,
242,-0.3795,0,
243,-0.379,0,
244,-0.3785,-0.0156250018626451,
245,-0.378,-0.0156250018626451,
246,-0.3775,-0.0156250018626451,
247,-0.377,0,
248,-0.3765,-0.0156250018626451,
249,-0.376,-0.0312500037252903,
250,-0.3755,-0.0312500037252903,
251,-0.375,-0.0156250018626451,
252,-0.3745,-0.0312500037252903,
253,-0.374,-0.0156250018626451,
254,-0.3735,-0.0468750055879354,
255,-0.373,-0.0312500037252903,
256,-0.3725,-0.0312500037252903,
257,-0.372,-0.0312500037252903,
258,-0.3715,0,
259,-0.371,-0.0312500037252903,
260,-0.3705,-0.0312500037252903,
261,-0.37,0,
262,-0.3695,0,
263,-0.369,0,
264,-0.3685,-0.0156250018626451,
265,-0.368,-0.0156250018626451,
266,-0.3675,-0.0156250018626451,
267,-0.367,-0.0156250018626451,
268,-0.3665,-0.0312500037252903,
269,-0.366,0,
270,-0.3655,0.0156250018626451,
271,-0.365,0,
272,-0.3645,0,
273,-0.364,0,
274,-0.3635,0,
275,-0.363,0.0156250018626451,
276,-0.3625,0,
277,-0.362,0,
278,-0.3615,-0.0156250018626451,
279,-0.361,-0.0156250018626451,
280,-0.3605,-0.0156250018626451,
281,-0.36,0,
282,-0.3595,-0.0312500037252903,
283,-0.359,-0.0156250018626451,
284,-0.3585,0,
285,-0.358,-0.0156250018626451,
286,-0.3575,-0.0312500037252903,
287,-0.357,-0.0156250018626451,
288,-0.3565,-0.0156250018626451,
289,-0.356,-0.0156250018626451,
290,-0.3555,-0.0156250018626451,
291,-0.355,-0.0312500037252903,
292,-0.3545,-0.0468750055879354,
293,-0.354,-0.0156250018626451,
294,-0.3535,-0.0312500037252903,
295,-0.353,-0.0156250018626451,
296,-0.3525,-0.0156250018626451,
297,-0.352,-0.0156250018626451,
298,-0.3515,-0.0156250018626451,
299,-0.351,-0.0156250018626451,
300,-0.3505,-0.0156250018626451,
301,-0.35,0,
302,-0.3495,0,
303,-0.349,0.0156250018626451,
304,-0.3485,-0.0156250018626451,
305,-0.348,0.0156250018626451,
306,-0.3475,0,
307,-0.347,-0.0156250018626451,
308,-0.3465,0,
309,-0.346,0.0312500037252903,
310,-0.3455,0,
311,-0.345,-0.0156250018626451,
312,-0.3445,0,
313,-0.344,-0.0312500037252903,
314,-0.3435,-0.0156250018626451,
315,-0.343,-0.0156250018626451,
316,-0.3425,-0.0312500037252903,
317,-0.342,-0.0156250018626451,
318,-0.3415,-0.0312500037252903,
319,-0.341,-0.0156250018626451,
320,-0.3405,-0.0468750055879354,
321,-0.34,-0.0156250018626451,
322,-0.3395,-0.0156250018626451,
323,-0.339,-0.0156250018626451,
324,-0.3385,-0.0312500037252903,
325,-0.338,-0.0312500037252903,
326,-0.3375,-0.0156250018626451,
327,-0.337,-0.0312500037252903,
328,-0.3365,0,
329,-0.336,-0.0468750055879354,
330,-0.3355,-0.0156250018626451,
331,-0.335,-0.0156250018626451,
332,-0.3345,-0.0156250018626451,
333,-0.334,-0.0156250018626451,
334,-0.3335,-0.0156250018626451,
335,-0.333,-0.0312500037252903,
336,-0.3325,0,
337,-0.332,-0.0156250018626451,
338,-0.3315,-0.0156250018626451,
339,-0.331,0.0312500037252903,
340,-0.3305,0,
341,-0.33,-0.0156250018626451,
342,-0.3295,-0.0312500037252903,
343,-0.329,-0.0156250018626451,
344,-0.3285,-0.0156250018626451,
345,-0.328,0,
346,-0.3275,-0.0156250018626451,
347,-0.327,-0.0468750055879354,
348,-0.3265,-0.0156250018626451,
349,-0.326,-0.0312500037252903,
350,-0.3255,0,
351,-0.325,-0.0468750055879354,
352,-0.3245,-0.0312500037252903,
353,-0.324,-0.0156250018626451,
354,-0.3235,-0.0312500037252903,
355,-0.323,-0.0312500037252903,
356,-0.3225,-0.0312500037252903,
357,-0.322,-0.0468750055879354,
358,-0.3215,-0.0156250018626451,
359,-0.321,-0.0312500037252903,
360,-0.3205,-0.0312500037252903,
361,-0.32,-0.0312500037252903,
362,-0.3195,-0.0312500037252903,
363,-0.319,-0.0468750055879354,
364,-0.3185,0,
365,-0.318,-0.0156250018626451,
366,-0.3175,-0.0156250018626451,
367,-0.317,0,
368,-0.3165,-0.0312500037252903,
369,-0.316,0,
370,-0.3155,0,
371,-0.315,0.0156250018626451,
372,-0.3145,0,
373,-0.314,0,
374,-0.3135,-0.0156250018626451,
375,-0.313,-0.0312500037252903,
376,-0.3125,0,
377,-0.312,-0.0156250018626451,
378,-0.3115,-0.0156250018626451,
379,-0.311,-0.0156250018626451,
380,-0.3105,-0.0312500037252903,
381,-0.31,-0.0468750055879354,
382,-0.3095,-0.0312500037252903,
383,-0.309,-0.0156250018626451,
384,-0.3085,-0.0312500037252903,
385,-0.308,-0.0468750055879354,
386,-0.3075,-0.0468750055879354,
387,-0.307,-0.0312500037252903,
388,-0.3065,-0.0625000074505806,
389,-0.306,-0.0312500037252903,
390,-0.3055,-0.0468750055879354,
391,-0.305,-0.0312500037252903,
392,-0.3045,-0.0156250018626451,
393,-0.304,-0.0468750055879354,
394,-0.3035,0,
395,-0.303,-0.0468750055879354,
396,-0.3025,-0.0156250018626451,
397,-0.302,-0.0312500037252903,
398,-0.3015,-0.0156250018626451,
399,-0.301,0,
400,-0.3005,-0.0156250018626451,
401,-0.3,-0.0156250018626451,
402,-0.2995,0.0156250018626451,
403,-0.299,0,
404,-0.2985,0,
405,-0.298,-0.0156250018626451,
406,-0.2975,0.0156250018626451,
407,-0.297,0,
408,-0.2965,0,
409,-0.296,-0.0156250018626451,
410,-0.2955,0,
411,-0.295,-0.0156250018626451,
412,-0.2945,-0.0156250018626451,
413,-0.294,-0.0156250018626451,
414,-0.2935,-0.0156250018626451,
415,-0.293,-0.0468750055879354,
416,-0.2925,-0.0312500037252903,
417,-0.292,0,
418,-0.2915,-0.0156250018626451,
419,-0.291,-0.0312500037252903,
420,-0.2905,-0.0468750055879354,
421,-0.29,-0.0156250018626451,
422,-0.2895,-0.0156250018626451,
423,-0.289,-0.0312500037252903,
424,-0.2885,-0.0156250018626451,
425,-0.288,-0.0468750055879354,
426,-0.2875,-0.0312500037252903,
427,-0.287,-0.0468750055879354,
428,-0.2865,-0.0156250018626451,
429,-0.286,-0.0156250018626451,
430,-0.2855,0,
431,-0.285,-0.0156250018626451,
432,-0.2845,0,
433,-0.284,-0.0156250018626451,
434,-0.2835,0,
435,-0.283,-0.0156250018626451,
436,-0.2825,-0.0156250018626451,
437,-0.282,0,
438,-0.2815,0,
439,-0.281,-0.0156250018626451,
440,-0.2805,-0.0156250018626451,
441,-0.28,-0.0156250018626451,
442,-0.2795,0,
443,-0.279,-0.0156250018626451,
444,-0.2785,-0.0156250018626451,
445,-0.278,-0.0156250018626451,
446,-0.2775,-0.0156250018626451,
447,-0.277,-0.0156250018626451,
448,-0.2765,-0.0156250018626451,
449,-0.276,-0.0156250018626451,
450,-0.2755,-0.0312500037252903,
451,-0.275,-0.0156250018626451,
452,-0.2745,-0.0312500037252903,
453,-0.274,-0.0312500037252903,
454,-0.2735,-0.0312500037252903,
455,-0.273,-0.0468750055879354,
456,-0.2725,-0.0468750055879354,
457,-0.272,-0.0468750055879354,
458,-0.2715,-0.0156250018626451,
459,-0.271,-0.0468750055879354,
460,-0.2705,-0.0156250018626451,
461,-0.27,-0.0312500037252903,
462,-0.2695,-0.0312500037252903,
463,-0.269,-0.0156250018626451,
464,-0.2685,-0.0312500037252903,
465,-0.268,-0.0312500037252903,
466,-0.2675,0,
467,-0.267,0,
468,-0.2665,0,
469,-0.266,-0.0156250018626451,
470,-0.2655,0.0156250018626451,
471,-0.265,-0.0156250018626451,
472,-0.2645,0,
473,-0.264,-0.0312500037252903,
474,-0.2635,0,
475,-0.263,-0.0312500037252903,
476,-0.2625,0.0156250018626451,
477,-0.262,-0.0312500037252903,
478,-0.2615,-0.0312500037252903,
479,-0.261,-0.0156250018626451,
480,-0.2605,-0.0312500037252903,
481,-0.26,-0.0312500037252903,
482,-0.2595,-0.0156250018626451,
483,-0.259,-0.0156250018626451,
484,-0.2585,-0.0468750055879354,
485,-0.258,-0.0312500037252903,
486,-0.2575,-0.0156250018626451,
487,-0.257,-0.0156250018626451,
488,-0.2565,-0.0156250018626451,
489,-0.256,-0.0312500037252903,
490,-0.2555,-0.0312500037252903,
491,-0.255,-0.0312500037252903,
492,-0.2545,-0.0468750055879354,
493,-0.254,-0.0156250018626451,
494,-0.2535,0,
495,-0.253,0,
496,-0.2525,-0.0312500037252903,
497,-0.252,-0.0156250018626451,
498,-0.2515,0,
499,-0.251,-0.0312500037252903,
500,-0.2505,0,
501,-0.25,-0.0312500037252903,
502,-0.2495,0,
503,-0.249,-0.0156250018626451,
504,-0.2485,-0.0312500037252903,
505,-0.248,0.0156250018626451,
506,-0.2475,-0.0156250018626451,
507,-0.247,0,
508,-0.2465,-0.0156250018626451,
509,-0.246,-0.0156250018626451,
510,-0.2455,-0.0312500037252903,
511,-0.245,0,
512,-0.2445,-0.0156250018626451,
513,-0.244,-0.0156250018626451,
514,-0.2435,0,
515,-0.243,-0.0312500037252903,
516,-0.2425,0,
517,-0.242,-0.0468750055879354,
518,-0.2415,-0.0312500037252903,
519,-0.241,-0.0312500037252903,
520,-0.2405,-0.0468750055879354,
521,-0.24,-0.0156250018626451,
522,-0.2395,-0.0156250018626451,
523,-0.239,-0.0312500037252903,
524,-0.2385,-0.0156250018626451,
525,-0.238,-0.0156250018626451,
526,-0.2375,-0.0156250018626451,
527,-0.237,-0.0156250018626451,
528,-0.2365,-0.0156250018626451,
529,-0.236,0,
530,-0.2355,0,
531,-0.235,0,
532,-0.2345,-0.0312500037252903,
533,-0.234,-0.0156250018626451,
534,-0.2335,-0.0156250018626451,
535,-0.233,0,
536,-0.2325,0,
537,-0.232,0,
538,-0.2315,0,
539,-0.231,0,
540,-0.2305,-0.0156250018626451,
541,-0.23,-0.0312500037252903,
542,-0.2295,-0.0156250018626451,
543,-0.229,-0.0156250018626451,
544,-0.2285,0,
545,-0.228,-0.0156250018626451,
546,-0.2275,-0.0156250018626451,
547,-0.227,-0.0468750055879354,
548,-0.2265,0,
549,-0.226,-0.0156250018626451,
550,-0.2255,0,
551,-0.225,0,
552,-0.2245,-0.0156250018626451,
553,-0.224,-0.0312500037252903,
554,-0.2235,-0.0312500037252903,
555,-0.223,-0.0625000074505806,
556,-0.2225,-0.0312500037252903,
557,-0.222,-0.0312500037252903,
558,-0.2215,-0.0312500037252903,
559,-0.221,-0.0156250018626451,
560,-0.2205,-0.0312500037252903,
561,-0.22,-0.0312500037252903,
562,-0.2195,-0.0156250018626451,
563,-0.219,-0.0156250018626451,
564,-0.2185,-0.0312500037252903,
565,-0.218,0,
566,-0.2175,0,
567,-0.217,0.0156250018626451,
568,-0.2165,0,
569,-0.216,-0.0156250018626451,
570,-0.2155,0.0156250018626451,
571,-0.215,0.0312500037252903,
572,-0.2145,-0.0156250018626451,
573,-0.214,0,
574,-0.2135,-0.0156250018626451,
575,-0.213,-0.0156250018626451,
576,-0.2125,-0.0156250018626451,
577,-0.212,-0.0156250018626451,
578,-0.2115,-0.0156250018626451,
579,-0.211,0,
580,-0.2105,-0.0156250018626451,
581,-0.21,-0.0156250018626451,
582,-0.2095,-0.0156250018626451,
583,-0.209,-0.0468750055879354,
584,-0.2085,-0.0156250018626451,
585,-0.208,-0.0156250018626451,
586,-0.2075,-0.0156250018626451,
587,-0.207,-0.0312500037252903,
588,-0.2065,-0.0156250018626451,
589,-0.206,-0.0468750055879354,
590,-0.2055,-0.0156250018626451,
591,-0.205,-0.0312500037252903,
592,-0.2045,-0.0156250018626451,
593,-0.204,-0.0468750055879354,
594,-0.2035,-0.0312500037252903,
595,-0.203,-0.0468750055879354,
596,-0.2025,-0.0156250018626451,
597,-0.202,-0.0156250018626451,
598,-0.2015,-0.0312500037252903,
599,-0.201,0,
600,-0.2005,0,
601,-0.2,-0.0156250018626451,
602,-0.1995,0,
603,-0.199,0,
604,-0.1985,-0.0156250018626451,
605,-0.198,0.0156250018626451,
606,-0.1975,0.0156250018626451,
607,-0.197,0.0156250018626451,
608,-0.1965,0.0312500037252903,
609,-0.196,0,
610,-0.1955,0,
611,-0.195,0,
612,-0.1945,-0.0156250018626451,
613,-0.194,-0.0156250018626451,
614,-0.1935,-0.0312500037252903,
615,-0.193,-0.0156250018626451,
616,-0.1925,-0.0156250018626451,
617,-0.192,-0.0312500037252903,
618,-0.1915,-0.0156250018626451,
619,-0.191,0,
620,-0.1905,0,
621,-0.19,-0.0312500037252903,
622,-0.1895,0,
623,-0.189,-0.0156250018626451,
624,-0.1885,-0.0312500037252903,
625,-0.188,0,
626,-0.1875,-0.0156250018626451,
627,-0.187,-0.0312500037252903,
628,-0.1865,-0.0156250018626451,
629,-0.186,-0.0312500037252903,
630,-0.1855,0,
631,-0.185,0.0156250018626451,
632,-0.1845,-0.0156250018626451,
633,-0.184,-0.0156250018626451,
634,-0.1835,-0.0156250018626451,
635,-0.183,0,
636,-0.1825,-0.0156250018626451,
637,-0.182,0,
638,-0.1815,0.0156250018626451,
639,-0.181,0,
640,-0.1805,0,
641,-0.18,-0.0156250018626451,
642,-0.1795,0.0156250018626451,
643,-0.179,0,
644,-0.1785,-0.0156250018626451,
645,-0.178,0,
646,-0.1775,-0.0156250018626451,
647,-0.177,0,
648,-0.1765,0,
649,-0.176,-0.0156250018626451,
650,-0.1755,-0.0156250018626451,
651,-0.175,-0.0156250018626451,
652,-0.1745,-0.0312500037252903,
653,-0.174,-0.0156250018626451,
654,-0.1735,-0.0312500037252903,
655,-0.173,-0.0312500037252903,
656,-0.1725,-0.0312500037252903,
657,-0.172,-0.0312500037252903,
658,-0.1715,-0.0312500037252903,
659,-0.171,0.0156250018626451,
660,-0.1705,-0.0312500037252903,
661,-0.17,-0.0156250018626451,
662,-0.1695,0,
663,-0.169,-0.0156250018626451,
664,-0.1685,0,
665,-0.168,-0.0156250018626451,
666,-0.1675,-0.0156250018626451,
667,-0.167,-0.0156250018626451,
668,-0.1665,-0.0156250018626451,
669,-0.166,0.0156250018626451,
670,-0.1655,0,
671,-0.165,0,
672,-0.1645,-0.0156250018626451,
673,-0.164,0,
674,-0.1635,0.0156250018626451,
675,-0.163,-0.0156250018626451,
676,-0.1625,-0.0156250018626451,
677,-0.162,-0.0156250018626451,
678,-0.1615,0,
679,-0.161,0.0156250018626451,
680,-0.1605,-0.0156250018626451,
681,-0.16,0,
682,-0.1595,-0.0312500037252903,
683,-0.159,-0.0156250018626451,
684,-0.1585,0,
685,-0.158,-0.0312500037252903,
686,-0.1575,-0.0156250018626451,
687,-0.157,-0.0156250018626451,
688,-0.1565,-0.0156250018626451,
689,-0.156,-0.0312500037252903,
690,-0.1555,0,
691,-0.155,-0.0312500037252903,
692,-0.1545,-0.0156250018626451,
693,-0.154,0,
694,-0.1535,-0.0312500037252903,
695,-0.153,-0.0312500037252903,
696,-0.1525,0,
697,-0.152,0,
698,-0.1515,-0.0156250018626451,
699,-0.151,-0.0156250018626451,
700,-0.1505,-0.0156250018626451,
701,-0.15,0.0156250018626451,
702,-0.1495,0.0156250018626451,
703,-0.149,-0.0156250018626451,
704,-0.1485,-0.0156250018626451,
705,-0.148,0.0156250018626451,
706,-0.1475,0,
707,-0.147,-0.0156250018626451,
708,-0.1465,0,
709,-0.146,-0.0156250018626451,
710,-0.1455,0.0312500037252903,
711,-0.145,0,
712,-0.1445,0,
713,-0.144,-0.0156250018626451,
714,-0.1435,-0.0156250018626451,
715,-0.143,0,
716,-0.1425,-0.0156250018626451,
717,-0.142,0,
718,-0.1415,-0.0312500037252903,
719,-0.141,-0.0156250018626451,
720,-0.1405,-0.0156250018626451,
721,-0.14,-0.0468750055879354,
722,-0.1395,-0.0312500037252903,
723,-0.139,-0.0312500037252903,
724,-0.1385,-0.0312500037252903,
725,-0.138,-0.0156250018626451,
726,-0.1375,0,
727,-0.137,-0.0156250018626451,
728,-0.1365,-0.0156250018626451,
729,-0.136,-0.0312500037252903,
730,-0.1355,-0.0312500037252903,
731,-0.135,-0.0156250018626451,
732,-0.1345,-0.0156250018626451,
733,-0.134,-0.0156250018626451,
734,-0.1335,0.0312500037252903,
735,-0.133,0.0156250018626451,
736,-0.1325,-0.0156250018626451,
737,-0.132,0.0156250018626451,
738,-0.1315,0.0156250018626451,
739,-0.131,0,
740,-0.1305,0.0156250018626451,
741,-0.13,0,
742,-0.1295,-0.0312500037252903,
743,-0.129,0,
744,-0.1285,0.0156250018626451,
745,-0.128,0.0156250018626451,
746,-0.1275,0,
747,-0.127,0,
748,-0.1265,-0.0156250018626451,
749,-0.126,-0.0156250018626451,
750,-0.1255,-0.0468750055879354,
751,-0.125,-0.0312500037252903,
752,-0.1245,-0.0156250018626451,
753,-0.124,-0.0156250018626451,
754,-0.1235,0,
755,-0.123,-0.0156250018626451,
756,-0.1225,-0.0312500037252903,
757,-0.122,-0.0312500037252903,
758,-0.1215,-0.0156250018626451,
759,-0.121,-0.0156250018626451,
760,-0.1205,-0.0312500037252903,
761,-0.12,-0.0156250018626451,
762,-0.1195,-0.0156250018626451,
763,-0.119,-0.0156250018626451,
764,-0.1185,0,
765,-0.118,-0.0156250018626451,
766,-0.1175,-0.0156250018626451,
767,-0.117,0,
768,-0.1165,0,
769,-0.116,0,
770,-0.1155,0,
771,-0.115,-0.0156250018626451,
772,-0.1145,-0.0156250018626451,
773,-0.114,-0.0156250018626451,
774,-0.1135,0.0156250018626451,
775,-0.113,0.0156250018626451,
776,-0.1125,-0.0312500037252903,
777,-0.112,0.0156250018626451,
778,-0.1115,0,
779,-0.111,0,
780,-0.1105,-0.0156250018626451,
781,-0.11,0,
782,-0.1095,0.0156250018626451,
783,-0.109,-0.0156250018626451,
784,-0.1085,-0.0156250018626451,
785,-0.108,0,
786,-0.1075,-0.0156250018626451,
787,-0.107,-0.0468750055879354,
788,-0.1065,-0.0156250018626451,
789,-0.106,-0.0156250018626451,
790,-0.1055,-0.0156250018626451,
791,-0.105,0,
792,-0.1045,-0.0156250018626451,
793,-0.104,-0.0156250018626451,
794,-0.1035,-0.0312500037252903,
795,-0.103,0,
796,-0.1025,-0.0312500037252903,
797,-0.102,-0.0156250018626451,
798,-0.1015,0,
799,-0.101,0,
800,-0.1005,-0.0156250018626451,
801,-0.1,0,
802,-0.0995,0,
803,-0.099,-0.0156250018626451,
804,-0.0985,0,
805,-0.098,0,
806,-0.0975,0,
807,-0.097,-0.0156250018626451,
808,-0.0965,0.0312500037252903,
809,-0.096,0.0156250018626451,
810,-0.0955,0,
811,-0.095,-0.0156250018626451,
812,-0.0945,0.0156250018626451,
813,-0.094,-0.0156250018626451,
814,-0.0935,-0.0156250018626451,
815,-0.093,0,
816,-0.0925,-0.0156250018626451,
817,-0.092,0,
818,-0.0915,-0.0156250018626451,
819,-0.091,0,
820,-0.0905,-0.0312500037252903,
821,-0.09,-0.0156250018626451,
822,-0.0895,-0.0468750055879354,
823,-0.089,-0.0156250018626451,
824,-0.0885,-0.0156250018626451,
825,-0.088,-0.0312500037252903,
826,-0.0875,-0.0468750055879354,
827,-0.087,-0.0156250018626451,
828,-0.0865,-0.0312500037252903,
829,-0.086,-0.0156250018626451,
830,-0.0855,-0.0312500037252903,
831,-0.085,0,
832,-0.0845,-0.0156250018626451,
833,-0.084,0,
834,-0.0835,-0.0312500037252903,
835,-0.083,0.0156250018626451,
836,-0.0825,0,
837,-0.082,0.0156250018626451,
838,-0.0815,0,
839,-0.081,0.0156250018626451,
840,-0.0805,-0.0156250018626451,
841,-0.08,-0.0156250018626451,
842,-0.0795,0,
843,-0.079,0,
844,-0.0785,0,
845,-0.078,0,
846,-0.0775,0,
847,-0.077,-0.0312500037252903,
848,-0.0765,-0.0156250018626451,
849,-0.076,0,
850,-0.0755,-0.0156250018626451,
851,-0.075,0,
852,-0.0745,0,
853,-0.074,-0.0468750055879354,
854,-0.0735,-0.0156250018626451,
855,-0.073,-0.0312500037252903,
856,-0.0725,-0.0156250018626451,
857,-0.072,-0.0312500037252903,
858,-0.0715,-0.0156250018626451,
859,-0.071,-0.0312500037252903,
860,-0.0705,-0.0312500037252903,
861,-0.07,0,
862,-0.0695,0,
863,-0.069,-0.0468750055879354,
864,-0.0685,-0.0312500037252903,
865,-0.068,-0.0156250018626451,
866,-0.0675,0,
867,-0.067,-0.0156250018626451,
868,-0.0665,-0.0156250018626451,
869,-0.066,0,
870,-0.0655,0.0156250018626451,
871,-0.065,-0.0156250018626451,
872,-0.0645,-0.0156250018626451,
873,-0.064,0,
874,-0.0635,0,
875,-0.063,-0.0312500037252903,
876,-0.0625,-0.0312500037252903,
877,-0.062,-0.0156250018626451,
878,-0.0615,-0.0312500037252903,
879,-0.061,-0.0312500037252903,
880,-0.0605,-0.0312500037252903,
881,-0.06,0,
882,-0.0595,-0.0312500037252903,
883,-0.059,0,
884,-0.0585,-0.0468750055879354,
885,-0.058,-0.0156250018626451,
886,-0.0575,-0.0312500037252903,
887,-0.057,-0.0468750055879354,
888,-0.0565,-0.0156250018626451,
889,-0.056,-0.0312500037252903,
890,-0.0555,-0.0468750055879354,
891,-0.055,-0.0156250018626451,
892,-0.0545,-0.0156250018626451,
893,-0.054,-0.0468750055879354,
894,-0.0535,-0.0156250018626451,
895,-0.053,-0.0156250018626451,
896,-0.0525,-0.0312500037252903,
897,-0.052,-0.0312500037252903,
898,-0.0515,-0.0156250018626451,
899,-0.051,-0.0156250018626451,
900,-0.0505,-0.0312500037252903,
901,-0.05,0.0156250018626451,
902,-0.0495,-0.0312500037252903,
903,-0.049,0,
904,-0.0485,0,
905,-0.048,-0.0156250018626451,
906,-0.0475,0,
907,-0.047,-0.0156250018626451,
908,-0.0465,0.0156250018626451,
909,-0.046,-0.0156250018626451,
910,-0.0455,0,
911,-0.045,-0.0156250018626451,
912,-0.0445,-0.0156250018626451,
913,-0.044,0,
914,-0.0435,-0.0156250018626451,
915,-0.043,-0.0312500037252903,
916,-0.0425,-0.0312500037252903,
917,-0.042,-0.0312500037252903,
918,-0.0415,-0.0312500037252903,
919,-0.041,-0.0468750055879354,
920,-0.0405,-0.0312500037252903,
921,-0.04,-0.0156250018626451,
922,-0.0395,-0.0468750055879354,
923,-0.039,-0.0468750055879354,
924,-0.0385,-0.0312500037252903,
925,-0.038,-0.0156250018626451,
926,-0.0375,-0.0468750055879354,
927,-0.037,-0.0468750055879354,
928,-0.0365,-0.0312500037252903,
929,-0.036,-0.0156250018626451,
930,-0.0355,0,
931,-0.035,0.0156250018626451,
932,-0.0345,0.0312500037252903,
933,-0.034,0.0312500037252903,
934,-0.0335,0.0468750055879354,
935,-0.033,0.0468750055879354,
936,-0.0325,0.0312500037252903,
937,-0.032,0.0156250018626451,
938,-0.0315,0.0156250018626451,
939,-0.031,0.0156250018626451,
940,-0.0305,0.0156250018626451,
941,-0.03,0,
942,-0.0295,0,
943,-0.029,0,
944,-0.0285,0,
945,-0.028,0.0156250018626451,
946,-0.0275,0.0156250018626451,
947,-0.027,0.0312500037252903,
948,-0.0265,0.0312500037252903,
949,-0.026,0.0468750055879354,
950,-0.0255,0.0312500037252903,
951,-0.025,0.0468750055879354,
952,-0.0245,0.0468750055879354,
953,-0.024,0.0625000074505806,
954,-0.0235,0.0468750055879354,
955,-0.023,0,
956,-0.0225,0.0156250018626451,
957,-0.022,-0.0156250018626451,
958,-0.0215,0,
959,-0.021,-0.0156250018626451,
960,-0.0205,0,
961,-0.02,0,
962,-0.0195,-0.0312500037252903,
963,-0.019,0.0156250018626451,
964,-0.0185,0,
965,-0.018,-0.0156250018626451,
966,-0.0175,0,
967,-0.017,0,
968,-0.0165,-0.0156250018626451,
969,-0.016,0,
970,-0.0155,0.0156250018626451,
971,-0.015,-0.0156250018626451,
972,-0.0145,0,
973,-0.014,-0.0156250018626451,
974,-0.0135,-0.0156250018626451,
975,-0.013,-0.0156250018626451,
976,-0.0125,-0.0156250018626451,
977,-0.012,-0.0156250018626451,
978,-0.0115,0,
979,-0.011,-0.0156250018626451,
980,-0.0105,0,
981,-0.01,-0.0156250018626451,
982,-0.00950000000000001,0,
983,-0.00900000000000001,0,
984,-0.00850000000000001,0.0156250018626451,
985,-0.00800000000000001,0,
986,-0.00750000000000001,-0.0156250018626451,
987,-0.00700000000000001,-0.0156250018626451,
988,-0.00650000000000001,-0.0312500037252903,
989,-0.00600000000000001,-0.0156250018626451,
990,-0.0055,-0.0156250018626451,
991,-0.005,0.0156250018626451,
992,-0.0045,0.0156250018626451,
993,-0.004,-0.0156250018626451,
994,-0.0035,0,
995,-0.003,0,
996,-0.0025,-0.0312500037252903,
997,-0.002,-0.0156250018626451,
998,-0.0015,0,
999,-0.001,0.0156250018626451,
1000,-0.0005,0,
1001,0,0.453125054016709,
1002,0.000500000000000056,0.828125098720193,
1003,0.001,0.796875094994903,
1004,0.00150000000000006,0.812500096857548,
1005,0.002,0.765625091269612,
1006,0.00250000000000006,0.828125098720193,
1007,0.003,0.828125098720193,
1008,0.00350000000000006,0.812500096857548,
1009,0.004,0.828125098720193,
1010,0.00450000000000006,0.812500096857548,
1011,0.005,0.796875094994903,
1012,0.00550000000000006,0.781250093132257,
1013,0.00600000000000001,0.781250093132257,
1014,0.00650000000000006,0.781250093132257,
1015,0.00700000000000001,0.765625091269612,
1016,0.00750000000000006,0.781250093132257,
1017,0.00800000000000001,0.765625091269612,
1018,0.00850000000000006,0.750000089406967,
1019,0.00900000000000001,0.750000089406967,
1020,0.00950000000000006,0.718750085681677,
1021,0.01,0.671875080093741,
1022,0.0105000000000001,0.671875080093741,
1023,0.011,0.687500081956387,
1024,0.0115000000000001,0.625000074505806,
1025,0.012,0.656250078231096,
1026,0.0125,0.625000074505806,
1027,0.013,0.578125068917871,
1028,0.0135,0.54687506519258,
1029,0.014,0.54687506519258,
1030,0.0145,0.51562506146729,
1031,0.015,0.484375057742,
1032,0.0155,0.453125054016709,
1033,0.016,0.468750055879354,
1034,0.0165,0.437500052154064,
1035,0.017,0.437500052154064,
1036,0.0175,0.421875050291419,
1037,0.018,0.390625046566129,
1038,0.0185,0.375000044703484,
1039,0.019,0.359375042840838,
1040,0.0195,0.375000044703484,
1041,0.02,0.359375042840838,
1042,0.0205,0.312500037252903,
1043,0.021,0.328125039115548,
1044,0.0215,0.343750040978193,
1045,0.022,0.281250033527613,
1046,0.0225,0.281250033527613,
1047,0.023,0.296875035390258,
1048,0.0235,0.250000029802322,
1049,0.024,0.250000029802322,
1050,0.0245,0.250000029802322,
1051,0.025,0.234375027939677,
1052,0.0255,0.218750026077032,
1053,0.026,0.203125024214387,
1054,0.0265,0.203125024214387,
1055,0.027,0.171875020489097,
1056,0.0275,0.203125024214387,
1057,0.028,0.187500022351742,
1058,0.0285,0.187500022351742,
1059,0.029,0.156250018626451,
1060,0.0295,0.171875020489097,
1061,0.03,0.140625016763806,
1062,0.0305,0.140625016763806,
1063,0.031,0.156250018626451,
1064,0.0315,0.156250018626451,
1065,0.032,0.125000014901161,
1066,0.0325,0.156250018626451,
1067,0.033,0.125000014901161,
1068,0.0335,0.109375013038516,
1069,0.034,0.125000014901161,
1070,0.0345,0.125000014901161,
1071,0.035,0.109375013038516,
1072,0.0355,0.0937500111758709,
1073,0.036,0.0937500111758709,
1074,0.0365,0.0937500111758709,
1075,0.037,0.0781250093132257,
1076,0.0375,0.109375013038516,
1077,0.038,0.0937500111758709,
1078,0.0385,0.0625000074505806,
1079,0.039,0.0937500111758709,
1080,0.0395,0.0781250093132257,
1081,0.04,0.0625000074505806,
1082,0.0405,0.0937500111758709,
1083,0.041,0.0625000074505806,
1084,0.0415,0.0625000074505806,
1085,0.042,0.0468750055879354,
1086,0.0425,0.0625000074505806,
1087,0.043,0.0468750055879354,
1088,0.0435,0.0468750055879354,
1089,0.044,0.0468750055879354,
1090,0.0445,0.0312500037252903,
1091,0.045,0.0468750055879354,
1092,0.0455,0.0625000074505806,
1093,0.046,0.0625000074505806,
1094,0.0465,0.0156250018626451,
1095,0.047,0.0625000074505806,
1096,0.0475,0.0312500037252903,
1097,0.048,0.0156250018626451,
1098,0.0485,0.0468750055879354,
1099,0.049,0.0468750055879354,
1100,0.0495,0.0312500037252903,
1101,0.05,0.0625000074505806,
1102,0.0505,0.0625000074505806,
1103,0.051,0.0468750055879354,
1104,0.0515,0.0312500037252903,
1105,0.052,0.0156250018626451,
1106,0.0525,0.0312500037252903,
1107,0.053,0.0468750055879354,
1108,0.0535,0.0156250018626451,
1109,0.054,0.0312500037252903,
1110,0.0545,0.0468750055879354,
1111,0.055,0.0156250018626451,
1112,0.0555,0.0156250018626451,
1113,0.0560000000000001,0.0156250018626451,
1114,0.0565,0,
1115,0.0570000000000001,0.0312500037252903,
1116,0.0575,0,
1117,0.0580000000000001,0,
1118,0.0585,0.0156250018626451,
1119,0.0590000000000001,0,
1120,0.0595,0.0156250018626451,
1121,0.0600000000000001,0.0156250018626451,
1122,0.0605,-0.0156250018626451,
1123,0.0610000000000001,0,
1124,0.0615,-0.0156250018626451,
1125,0.0620000000000001,-0.0156250018626451,
1126,0.0625,-0.0156250018626451,
1127,0.0630000000000001,0,
1128,0.0635,0.0156250018626451,
1129,0.0640000000000001,0.0156250018626451,
1130,0.0645,0.0156250018626451,
1131,0.0650000000000001,0,
1132,0.0655,0,
1133,0.0660000000000001,0.0156250018626451,
1134,0.0665,0,
1135,0.0670000000000001,0,
1136,0.0675,0,
1137,0.0680000000000001,0.0312500037252903,
1138,0.0685,0.0312500037252903,
1139,0.0690000000000001,0,
1140,0.0695,0.0156250018626451,
1141,0.0700000000000001,-0.0156250018626451,
1142,0.0705,0.0156250018626451,
1143,0.0710000000000001,-0.0156250018626451,
1144,0.0715,-0.0156250018626451,
1145,0.0720000000000001,0.0156250018626451,
1146,0.0725,-0.0156250018626451,
1147,0.0730000000000001,0,
1148,0.0735,-0.0156250018626451,
1149,0.0740000000000001,0.0156250018626451,
1150,0.0745,0,
1151,0.0750000000000001,0,
1152,0.0755,-0.0156250018626451,
1153,0.0760000000000001,-0.0156250018626451,
1154,0.0765,0,
1155,0.077,-0.0156250018626451,
1156,0.0775,0,
1157,0.078,0,
1158,0.0785,-0.0156250018626451,
1159,0.079,-0.0156250018626451,
1160,0.0795,-0.0312500037252903,
1161,0.08,0,
1162,0.0805,-0.0312500037252903,
1163,0.081,0,
1164,0.0815,0,
1165,0.082,-0.0312500037252903,
1166,0.0825,-0.0156250018626451,
1167,0.083,-0.0312500037252903,
1168,0.0835,-0.0312500037252903,
1169,0.084,0,
1170,0.0845,0,
1171,0.085,0,
1172,0.0855,-0.0156250018626451,
1173,0.086,0,
1174,0.0865,0.0156250018626451,
1175,0.087,0.0156250018626451,
1176,0.0875,-0.0468750055879354,
1177,0.088,0,
1178,0.0885,-0.0312500037252903,
1179,0.089,0,
1180,0.0895,-0.0156250018626451,
1181,0.09,-0.0156250018626451,
1182,0.0905,-0.0156250018626451,
1183,0.091,-0.0156250018626451,
1184,0.0915,0,
1185,0.092,-0.0156250018626451,
1186,0.0925,-0.0312500037252903,
1187,0.093,-0.0156250018626451,
1188,0.0935,-0.0312500037252903,
1189,0.094,0,
1190,0.0945,-0.0156250018626451,
1191,0.095,-0.0312500037252903,
1192,0.0955,0,
1193,0.096,-0.0156250018626451,
1194,0.0965,-0.0312500037252903,
1195,0.097,0,
1196,0.0975,-0.0312500037252903,
1197,0.098,-0.0156250018626451,
1198,0.0985,0,
1199,0.099,-0.0156250018626451,
1200,0.0995,-0.0156250018626451,
1201,0.1,-0.0312500037252903,
1202,0.1005,-0.0156250018626451,
1203,0.101,-0.0312500037252903,
1204,0.1015,0,
1205,0.102,-0.0156250018626451,
1206,0.1025,0.0156250018626451,
1207,0.103,-0.0312500037252903,
1208,0.1035,-0.0156250018626451,
1209,0.104,-0.0312500037252903,
1210,0.1045,-0.0312500037252903,
1211,0.105,-0.0312500037252903,
1212,0.1055,-0.0156250018626451,
1213,0.106,-0.0156250018626451,
1214,0.1065,-0.0312500037252903,
1215,0.107,-0.0312500037252903,
1216,0.1075,-0.0312500037252903,
1217,0.108,-0.0156250018626451,
1218,0.1085,-0.0156250018626451,
1219,0.109,0,
1220,0.1095,-0.0156250018626451,
1221,0.11,-0.0312500037252903,
1222,0.1105,-0.0312500037252903,
1223,0.111,-0.0312500037252903,
1224,0.1115,-0.0156250018626451,
1225,0.112,-0.0156250018626451,
1226,0.1125,-0.0312500037252903,
1227,0.113,-0.0312500037252903,
1228,0.1135,-0.0468750055879354,
1229,0.114,-0.0156250018626451,
1230,0.1145,-0.0312500037252903,
1231,0.115,-0.0156250018626451,
1232,0.1155,-0.0156250018626451,
1233,0.116,0,
1234,0.1165,-0.0156250018626451,
1235,0.117,-0.0312500037252903,
1236,0.1175,0.0156250018626451,
1237,0.118,-0.0312500037252903,
1238,0.1185,-0.0156250018626451,
1239,0.119,-0.0156250018626451,
1240,0.1195,-0.0156250018626451,
1241,0.12,-0.0156250018626451,
1242,0.1205,-0.0156250018626451,
1243,0.121,-0.0312500037252903,
1244,0.1215,0,
1245,0.122,-0.0312500037252903,
1246,0.1225,-0.0156250018626451,
1247,0.123,-0.0312500037252903,
1248,0.1235,-0.0156250018626451,
1249,0.124,-0.0156250018626451,
1250,0.1245,-0.0156250018626451,
1251,0.125,-0.0312500037252903,
1252,0.1255,-0.0156250018626451,
1253,0.126,-0.0156250018626451,
1254,0.1265,-0.0468750055879354,
1255,0.127,-0.0312500037252903,
1256,0.1275,-0.0312500037252903,
1257,0.128,-0.0156250018626451,
1258,0.1285,-0.0312500037252903,
1259,0.129,-0.0156250018626451,
1260,0.1295,-0.0156250018626451,
1261,0.13,-0.0468750055879354,
1262,0.1305,-0.0312500037252903,
1263,0.131,-0.0468750055879354,
1264,0.1315,-0.0156250018626451,
1265,0.132,0,
1266,0.1325,-0.0312500037252903,
1267,0.133,-0.0312500037252903,
1268,0.1335,-0.0156250018626451,
1269,0.134,-0.0468750055879354,
1270,0.1345,-0.0312500037252903,
1271,0.135,-0.0312500037252903,
1272,0.1355,-0.0468750055879354,
1273,0.136,0,
1274,0.1365,-0.0468750055879354,
1275,0.137,-0.0156250018626451,
1276,0.1375,0.0156250018626451,
1277,0.138,0,
1278,0.1385,-0.0312500037252903,
1279,0.139,-0.0312500037252903,
1280,0.1395,-0.0156250018626451,
1281,0.14,-0.0156250018626451,
1282,0.1405,-0.0156250018626451,
1283,0.141,-0.0312500037252903,
1284,0.1415,0,
1285,0.142,-0.0312500037252903,
1286,0.1425,-0.0312500037252903,
1287,0.143,-0.0312500037252903,
1288,0.1435,-0.0156250018626451,
1289,0.144,-0.0312500037252903,
1290,0.1445,-0.0156250018626451,
1291,0.145,-0.0468750055879354,
1292,0.1455,-0.0312500037252903,
1293,0.146,-0.0312500037252903,
1294,0.1465,-0.0312500037252903,
1295,0.147,-0.0312500037252903,
1296,0.1475,-0.0468750055879354,
1297,0.148,-0.0156250018626451,
1298,0.1485,-0.0312500037252903,
1299,0.149,-0.0312500037252903,
1300,0.1495,-0.0156250018626451,
1301,0.15,-0.0312500037252903,
1302,0.1505,-0.0312500037252903,
1303,0.151,-0.0156250018626451,
1304,0.1515,0,
1305,0.152,0,
1306,0.1525,-0.0312500037252903,
1307,0.153,-0.0156250018626451,
1308,0.1535,-0.0312500037252903,
1309,0.154,-0.0156250018626451,
1310,0.1545,-0.0156250018626451,
1311,0.155,0.0156250018626451,
1312,0.1555,-0.0156250018626451,
1313,0.156,-0.0156250018626451,
1314,0.1565,-0.0156250018626451,
1315,0.157,-0.0156250018626451,
1316,0.1575,-0.0156250018626451,
1317,0.158,0,
1318,0.1585,-0.0312500037252903,
1319,0.159,-0.0312500037252903,
1320,0.1595,-0.0312500037252903,
1321,0.16,-0.0312500037252903,
1322,0.1605,-0.0468750055879354,
1323,0.161,-0.0312500037252903,
1324,0.1615,-0.0156250018626451,
1325,0.162,-0.0625000074505806,
1326,0.1625,0,
1327,0.163,-0.0312500037252903,
1328,0.1635,0,
1329,0.164,-0.0468750055879354,
1330,0.1645,0,
1331,0.165,-0.0156250018626451,
1332,0.1655,0,
1333,0.166,-0.0156250018626451,
1334,0.1665,-0.0156250018626451,
1335,0.167,0.0156250018626451,
1336,0.1675,-0.0156250018626451,
1337,0.168,0,
1338,0.1685,-0.0156250018626451,
1339,0.169,-0.0156250018626451,
1340,0.1695,-0.0156250018626451,
1341,0.17,-0.0156250018626451,
1342,0.1705,-0.0312500037252903,
1343,0.171,0.0156250018626451,
1344,0.1715,-0.0156250018626451,
1345,0.172,-0.0312500037252903,
1346,0.1725,-0.0156250018626451,
1347,0.173,-0.0312500037252903,
1348,0.1735,-0.0156250018626451,
1349,0.174,-0.0156250018626451,
1350,0.1745,-0.0156250018626451,
1351,0.175,-0.0312500037252903,
1352,0.1755,-0.0156250018626451,
1353,0.176,-0.0312500037252903,
1354,0.1765,-0.0312500037252903,
1355,0.177,-0.0312500037252903,
1356,0.1775,-0.0156250018626451,
1357,0.178,-0.0312500037252903,
1358,0.1785,-0.0156250018626451,
1359,0.179,-0.0312500037252903,
1360,0.1795,-0.0468750055879354,
1361,0.18,-0.0156250018626451,
1362,0.1805,-0.0312500037252903,
1363,0.181,-0.0156250018626451,
1364,0.1815,-0.0312500037252903,
1365,0.182,-0.0156250018626451,
1366,0.1825,-0.0156250018626451,
1367,0.183,-0.0156250018626451,
1368,0.1835,-0.0156250018626451,
1369,0.184,0,
1370,0.1845,-0.0156250018626451,
1371,0.185,-0.0156250018626451,
1372,0.1855,0,
1373,0.186,-0.0156250018626451,
1374,0.1865,-0.0468750055879354,
1375,0.187,-0.0156250018626451,
1376,0.1875,-0.0312500037252903,
1377,0.188,-0.0156250018626451,
1378,0.1885,-0.0156250018626451,
1379,0.189,-0.0468750055879354,
1380,0.1895,-0.0156250018626451,
1381,0.19,-0.0312500037252903,
1382,0.1905,-0.0156250018626451,
1383,0.191,-0.0312500037252903,
1384,0.1915,-0.0312500037252903,
1385,0.192,-0.0156250018626451,
1386,0.1925,-0.0312500037252903,
1387,0.193,-0.0156250018626451,
1388,0.1935,-0.0156250018626451,
1389,0.194,-0.0468750055879354,
1390,0.1945,-0.0156250018626451,
1391,0.195,-0.0468750055879354,
1392,0.1955,-0.0156250018626451,
1393,0.196,-0.0468750055879354,
1394,0.1965,-0.0156250018626451,
1395,0.197,-0.0156250018626451,
1396,0.1975,-0.0312500037252903,
1397,0.198,-0.0156250018626451,
1398,0.1985,-0.0312500037252903,
1399,0.199,-0.0156250018626451,
1400,0.1995,-0.0312500037252903,
1401,0.2,-0.0156250018626451,
1402,0.2005,0,
1403,0.201,-0.0312500037252903,
1404,0.2015,-0.0312500037252903,
1405,0.202,-0.0312500037252903,
1406,0.2025,0,
1407,0.203,-0.0312500037252903,
1408,0.2035,-0.0312500037252903,
1409,0.204,0,
1410,0.2045,0,
1411,0.205,-0.0312500037252903,
1412,0.2055,0,
1413,0.206,-0.0156250018626451,
1414,0.2065,-0.0156250018626451,
1415,0.207,-0.0312500037252903,
1416,0.2075,-0.0156250018626451,
1417,0.208,-0.0156250018626451,
1418,0.2085,-0.0312500037252903,
1419,0.209,-0.0312500037252903,
1420,0.2095,-0.0312500037252903,
1421,0.21,0,
1422,0.2105,0,
1423,0.211,-0.0156250018626451,
1424,0.2115,-0.0156250018626451,
1425,0.212,0,
1426,0.2125,-0.0156250018626451,
1427,0.213,-0.0156250018626451,
1428,0.2135,-0.0156250018626451,
1429,0.214,-0.0156250018626451,
1430,0.2145,-0.0468750055879354,
1431,0.215,-0.0312500037252903,
1432,0.2155,-0.0156250018626451,
1433,0.216,-0.0156250018626451,
1434,0.2165,-0.0312500037252903,
1435,0.217,-0.0312500037252903,
1436,0.2175,-0.0156250018626451,
1437,0.218,0.0156250018626451,
1438,0.2185,0,
1439,0.219,-0.0156250018626451,
1440,0.2195,0,
1441,0.22,-0.0312500037252903,
1442,0.2205,-0.0156250018626451,
1443,0.221,0,
1444,0.2215,-0.0156250018626451,
1445,0.222,-0.0312500037252903,
1446,0.2225,-0.0312500037252903,
1447,0.223,0,
1448,0.2235,-0.0468750055879354,
1449,0.224,-0.0312500037252903,
1450,0.2245,-0.0156250018626451,
1451,0.225,-0.0312500037252903,
1452,0.2255,0,
1453,0.226,-0.0156250018626451,
1454,0.2265,-0.0156250018626451,
1455,0.227,-0.0312500037252903,
1456,0.2275,-0.0312500037252903,
1457,0.228,-0.0468750055879354,
1458,0.2285,-0.0312500037252903,
1459,0.229,-0.0468750055879354,
1460,0.2295,-0.0312500037252903,
1461,0.23,-0.0468750055879354,
1462,0.2305,-0.0312500037252903,
1463,0.231,-0.0156250018626451,
1464,0.2315,-0.0312500037252903,
1465,0.232,-0.0312500037252903,
1466,0.2325,-0.0312500037252903,
1467,0.233,0,
1468,0.2335,-0.0156250018626451,
1469,0.234,-0.0156250018626451,
1470,0.2345,-0.0156250018626451,
1471,0.235,0,
1472,0.2355,-0.0468750055879354,
1473,0.236,-0.0156250018626451,
1474,0.2365,0,
1475,0.237,-0.0156250018626451,
1476,0.2375,-0.0312500037252903,
1477,0.238,0,
1478,0.2385,-0.0468750055879354,
1479,0.239,-0.0156250018626451,
1480,0.2395,-0.0312500037252903,
1481,0.24,-0.0468750055879354,
1482,0.2405,0,
1483,0.241,-0.0156250018626451,
1484,0.2415,-0.0156250018626451,
1485,0.242,-0.0156250018626451,
1486,0.2425,-0.0156250018626451,
1487,0.243,-0.0156250018626451,
1488,0.2435,-0.0468750055879354,
1489,0.244,-0.0312500037252903,
1490,0.2445,-0.0468750055879354,
1491,0.245,-0.0312500037252903,
1492,0.2455,-0.0312500037252903,
1493,0.246,-0.0312500037252903,
1494,0.2465,-0.0312500037252903,
1495,0.247,-0.0156250018626451,
1496,0.2475,-0.0468750055879354,
1497,0.248,-0.0156250018626451,
1498,0.2485,0,
1499,0.249,-0.0312500037252903,
1500,0.2495,-0.0312500037252903,
1501,0.25,-0.0156250018626451,
1502,0.2505,-0.0156250018626451,
1503,0.251,-0.0156250018626451,
1504,0.2515,-0.0156250018626451,
1505,0.252,0,
1506,0.2525,-0.0156250018626451,
1507,0.253,-0.0312500037252903,
1508,0.2535,-0.0312500037252903,
1509,0.254,-0.0156250018626451,
1510,0.2545,-0.0156250018626451,
1511,0.255,-0.0312500037252903,
1512,0.2555,-0.0156250018626451,
1513,0.256,0,
1514,0.2565,-0.0156250018626451,
1515,0.257,-0.0468750055879354,
1516,0.2575,-0.0312500037252903,
1517,0.258,-0.0156250018626451,
1518,0.2585,-0.0156250018626451,
1519,0.259,-0.0156250018626451,
1520,0.2595,-0.0312500037252903,
1521,0.26,-0.0312500037252903,
1522,0.2605,-0.0156250018626451,
1523,0.261,-0.0312500037252903,
1524,0.2615,-0.0468750055879354,
1525,0.262,-0.0312500037252903,
1526,0.2625,0,
1527,0.263,-0.0156250018626451,
1528,0.2635,-0.0312500037252903,
1529,0.264,0,
1530,0.2645,-0.0156250018626451,
1531,0.265,-0.0156250018626451,
1532,0.2655,0,
1533,0.266,-0.0156250018626451,
1534,0.2665,-0.0156250018626451,
1535,0.267,-0.0312500037252903,
1536,0.2675,-0.0156250018626451,
1537,0.268,-0.0312500037252903,
1538,0.2685,-0.0312500037252903,
1539,0.269,-0.0312500037252903,
1540,0.2695,-0.0156250018626451,
1541,0.27,0,
1542,0.2705,-0.0156250018626451,
1543,0.271,0.0156250018626451,
1544,0.2715,-0.0156250018626451,
1545,0.272,-0.0312500037252903,
1546,0.2725,-0.0156250018626451,
1547,0.273,-0.0312500037252903,
1548,0.2735,-0.0156250018626451,
1549,0.274,0,
1550,0.2745,-0.0468750055879354,
1551,0.275,-0.0468750055879354,
1552,0.2755,-0.0468750055879354,
1553,0.276,-0.0312500037252903,
1554,0.2765,0,
1555,0.277,-0.0156250018626451,
1556,0.2775,-0.0312500037252903,
1557,0.278,-0.0156250018626451,
1558,0.2785,-0.0468750055879354,
1559,0.279,-0.0312500037252903,
1560,0.2795,-0.0312500037252903,
1561,0.28,-0.0468750055879354,
1562,0.2805,-0.0468750055879354,
1563,0.281,-0.0312500037252903,
1564,0.2815,-0.0312500037252903,
1565,0.282,-0.0156250018626451,
1566,0.2825,-0.0312500037252903,
1567,0.283,0,
1568,0.2835,-0.0312500037252903,
1569,0.284,-0.0156250018626451,
1570,0.2845,-0.0156250018626451,
1571,0.285,-0.0156250018626451,
1572,0.2855,-0.0156250018626451,
1573,0.286,0,
1574,0.2865,-0.0312500037252903,
1575,0.287,0,
1576,0.2875,-0.0156250018626451,
1577,0.288,-0.0156250018626451,
1578,0.2885,-0.0312500037252903,
1579,0.289,-0.0156250018626451,
1580,0.2895,-0.0156250018626451,
1581,0.29,-0.0312500037252903,
1582,0.2905,-0.0156250018626451,
1583,0.291,-0.0156250018626451,
1584,0.2915,-0.0312500037252903,
1585,0.292,-0.0156250018626451,
1586,0.2925,-0.0156250018626451,
1587,0.293,-0.0156250018626451,
1588,0.2935,0.0156250018626451,
1589,0.294,-0.0156250018626451,
1590,0.2945,-0.0156250018626451,
1591,0.295,-0.0156250018626451,
1592,0.2955,-0.0312500037252903,
1593,0.296,-0.0468750055879354,
1594,0.2965,-0.0312500037252903,
1595,0.297,-0.0312500037252903,
1596,0.2975,-0.0468750055879354,
1597,0.298,-0.0312500037252903,
1598,0.2985,-0.0156250018626451,
1599,0.299,-0.0312500037252903,
1600,0.2995,0,
1601,0.3,-0.0312500037252903,
1602,0.3005,-0.0156250018626451,
1603,0.301,-0.0312500037252903,
1604,0.3015,0,
1605,0.302,0.0156250018626451,
1606,0.3025,-0.0156250018626451,
1607,0.303,-0.0156250018626451,
1608,0.3035,-0.0156250018626451,
1609,0.304,-0.0156250018626451,
1610,0.3045,-0.0312500037252903,
1611,0.305,0,
1612,0.3055,0,
1613,0.306,-0.0156250018626451,
1614,0.3065,-0.0312500037252903,
1615,0.307,-0.0156250018626451,
1616,0.3075,-0.0156250018626451,
1617,0.308,-0.0156250018626451,
1618,0.3085,-0.0468750055879354,
1619,0.309,-0.0156250018626451,
1620,0.3095,-0.0156250018626451,
1621,0.31,-0.0156250018626451,
1622,0.3105,-0.0468750055879354,
1623,0.311,-0.0156250018626451,
1624,0.3115,-0.0312500037252903,
1625,0.312,-0.0468750055879354,
1626,0.3125,-0.0468750055879354,
1627,0.313,-0.0468750055879354,
1628,0.3135,-0.0156250018626451,
1629,0.314,-0.0156250018626451,
1630,0.3145,-0.0468750055879354,
1631,0.315,-0.0312500037252903,
1632,0.3155,-0.0156250018626451,
1633,0.316,-0.0156250018626451,
1634,0.3165,-0.0156250018626451,
1635,0.317,0,
1636,0.3175,-0.0156250018626451,
1637,0.318,-0.0312500037252903,
1638,0.3185,0,
1639,0.319,-0.0156250018626451,
1640,0.3195,-0.0312500037252903,
1641,0.32,0.0156250018626451,
1642,0.3205,0,
1643,0.321,-0.0156250018626451,
1644,0.3215,0,
1645,0.322,-0.0156250018626451,
1646,0.3225,-0.0156250018626451,
1647,0.323,0,
1648,0.3235,-0.0312500037252903,
1649,0.324,-0.0156250018626451,
1650,0.3245,-0.0156250018626451,
1651,0.325,-0.0312500037252903,
1652,0.3255,0,
1653,0.326,-0.0156250018626451,
1654,0.3265,-0.0312500037252903,
1655,0.327,-0.0312500037252903,
1656,0.3275,-0.0156250018626451,
1657,0.328,-0.0312500037252903,
1658,0.3285,-0.0468750055879354,
1659,0.329,-0.0468750055879354,
1660,0.3295,-0.0312500037252903,
1661,0.33,0,
1662,0.3305,-0.0156250018626451,
1663,0.331,-0.0312500037252903,
1664,0.3315,-0.0156250018626451,
1665,0.332,0,
1666,0.3325,0,
1667,0.333,-0.0312500037252903,
1668,0.3335,-0.0312500037252903,
1669,0.334,-0.0468750055879354,
1670,0.3345,0,
1671,0.335,-0.0312500037252903,
1672,0.3355,-0.0468750055879354,
1673,0.336,0,
1674,0.3365,-0.0312500037252903,
1675,0.337,-0.0312500037252903,
1676,0.3375,-0.0156250018626451,
1677,0.338,-0.0312500037252903,
1678,0.3385,-0.0312500037252903,
1679,0.339,-0.0312500037252903,
1680,0.3395,-0.0312500037252903,
1681,0.34,-0.0156250018626451,
1682,0.3405,-0.0156250018626451,
1683,0.341,-0.0312500037252903,
1684,0.3415,-0.0312500037252903,
1685,0.342,-0.0156250018626451,
1686,0.3425,-0.0156250018626451,
1687,0.343,-0.0156250018626451,
1688,0.3435,-0.0156250018626451,
1689,0.344,-0.0156250018626451,
1690,0.3445,-0.0312500037252903,
1691,0.345,-0.0312500037252903,
1692,0.3455,-0.0312500037252903,
1693,0.346,-0.0156250018626451,
1694,0.3465,-0.0312500037252903,
1695,0.347,-0.0156250018626451,
1696,0.3475,0,
1697,0.348,-0.0312500037252903,
1698,0.3485,-0.0156250018626451,
1699,0.349,-0.0468750055879354,
1700,0.3495,0,
1701,0.35,-0.0312500037252903,
1702,0.3505,-0.0156250018626451,
1703,0.351,-0.0156250018626451,
1704,0.3515,-0.0156250018626451,
1705,0.352,0,
1706,0.3525,0,
1707,0.353,-0.0156250018626451,
1708,0.3535,0,
1709,0.354,-0.0312500037252903,
1710,0.3545,-0.0156250018626451,
1711,0.355,-0.0156250018626451,
1712,0.3555,-0.0312500037252903,
1713,0.356,-0.0156250018626451,
1714,0.3565,-0.0156250018626451,
1715,0.357,-0.0156250018626451,
1716,0.3575,-0.0468750055879354,
1717,0.358,-0.0312500037252903,
1718,0.3585,-0.0312500037252903,
1719,0.359,-0.0156250018626451,
1720,0.3595,-0.0468750055879354,
1721,0.36,-0.0312500037252903,
1722,0.3605,0,
1723,0.361,-0.0312500037252903,
1724,0.3615,-0.0156250018626451,
1725,0.362,-0.0312500037252903,
1726,0.3625,-0.0156250018626451,
1727,0.363,-0.0156250018626451,
1728,0.3635,-0.0312500037252903,
1729,0.364,-0.0312500037252903,
1730,0.3645,-0.0156250018626451,
1731,0.365,-0.0156250018626451,
1732,0.3655,-0.0156250018626451,
1733,0.366,-0.0156250018626451,
1734,0.3665,-0.0156250018626451,
1735,0.367,0,
1736,0.3675,0,
1737,0.368,-0.0312500037252903,
1738,0.3685,-0.0312500037252903,
1739,0.369,-0.0156250018626451,
1740,0.3695,-0.0156250018626451,
1741,0.37,-0.0312500037252903,
1742,0.3705,-0.0312500037252903,
1743,0.371,-0.0156250018626451,
1744,0.3715,-0.0156250018626451,
1745,0.372,-0.0468750055879354,
1746,0.3725,-0.0156250018626451,
1747,0.373,0.0156250018626451,
1748,0.3735,-0.0156250018626451,
1749,0.374,-0.0156250018626451,
1750,0.3745,-0.0156250018626451,
1751,0.375,-0.0156250018626451,
1752,0.3755,-0.0156250018626451,
1753,0.376,-0.0156250018626451,
1754,0.3765,0,
1755,0.377,-0.0312500037252903,
1756,0.3775,-0.0468750055879354,
1757,0.378,-0.0312500037252903,
1758,0.3785,-0.0156250018626451,
1759,0.379,0,
1760,0.3795,-0.0625000074505806,
1761,0.38,-0.0312500037252903,
1762,0.3805,-0.0312500037252903,
1763,0.381,-0.0312500037252903,
1764,0.3815,0,
1765,0.382,-0.0156250018626451,
1766,0.3825,0,
1767,0.383,-0.0312500037252903,
1768,0.3835,0,
1769,0.384,-0.0312500037252903,
1770,0.3845,-0.0156250018626451,
1771,0.385,-0.0312500037252903,
1772,0.3855,-0.0312500037252903,
1773,0.386,-0.0312500037252903,
1774,0.3865,-0.0156250018626451,
1775,0.387,0,
1776,0.3875,-0.0156250018626451,
1777,0.388,0,
1778,0.3885,-0.0312500037252903,
1779,0.389,0.0156250018626451,
1780,0.3895,-0.0156250018626451,
1781,0.39,-0.0312500037252903,
1782,0.3905,-0.0156250018626451,
1783,0.391,0,
1784,0.3915,-0.0312500037252903,
1785,0.392,-0.0156250018626451,
1786,0.3925,-0.0156250018626451,
1787,0.393,-0.0312500037252903,
1788,0.3935,-0.0468750055879354,
1789,0.394,-0.0312500037252903,
1790,0.3945,-0.0312500037252903,
1791,0.395,0,
1792,0.3955,-0.0312500037252903,
1793,0.396,-0.0156250018626451,
1794,0.3965,-0.0156250018626451,
1795,0.397,-0.0468750055879354,
1796,0.3975,-0.0625000074505806,
1797,0.398,-0.0312500037252903,
1798,0.3985,-0.0156250018626451,
1799,0.399,-0.0156250018626451,
1800,0.3995,0,
1801,0.4,-0.0156250018626451,
1802,0.4005,-0.0156250018626451,
1803,0.401,-0.0312500037252903,
1804,0.4015,-0.0312500037252903,
1805,0.402,-0.0156250018626451,
1806,0.4025,-0.0156250018626451,
1807,0.403,-0.0312500037252903,
1808,0.4035,0,
1809,0.404,-0.0312500037252903,
1810,0.4045,0,
1811,0.405,-0.0156250018626451,
1812,0.4055,-0.0156250018626451,
1813,0.406,-0.0156250018626451,
1814,0.4065,-0.0156250018626451,
1815,0.407,-0.0312500037252903,
1816,0.4075,-0.0156250018626451,
1817,0.408,-0.0312500037252903,
1818,0.4085,-0.0312500037252903,
1819,0.409,-0.0312500037252903,
1820,0.4095,-0.0312500037252903,
1821,0.41,-0.0156250018626451,
1822,0.4105,-0.0312500037252903,
1823,0.411,-0.0312500037252903,
1824,0.4115,-0.0312500037252903,
1825,0.412,-0.0312500037252903,
1826,0.4125,-0.0468750055879354,
1827,0.413,-0.0468750055879354,
1828,0.4135,0,
1829,0.414,-0.0312500037252903,
1830,0.4145,-0.0156250018626451,
1831,0.415,-0.0156250018626451,
1832,0.4155,-0.0156250018626451,
1833,0.416,-0.0468750055879354,
1834,0.4165,-0.0156250018626451,
1835,0.417,0,
1836,0.4175,-0.0312500037252903,
1837,0.418,-0.0156250018626451,
1838,0.4185,-0.0156250018626451,
1839,0.419,-0.0156250018626451,
1840,0.4195,0.0156250018626451,
1841,0.42,-0.0156250018626451,
1842,0.4205,-0.0312500037252903,
1843,0.421,0,
1844,0.4215,-0.0156250018626451,
1845,0.422,0.0156250018626451,
1846,0.4225,0,
1847,0.423,0,
1848,0.4235,-0.0312500037252903,
1849,0.424,-0.0468750055879354,
1850,0.4245,-0.0468750055879354,
1851,0.425,-0.0156250018626451,
1852,0.4255,-0.0312500037252903,
1853,0.426,-0.0312500037252903,
1854,0.4265,-0.0312500037252903,
1855,0.427,-0.0312500037252903,
1856,0.4275,-0.0156250018626451,
1857,0.428,-0.0312500037252903,
1858,0.4285,-0.0468750055879354,
1859,0.429,-0.0312500037252903,
1860,0.4295,-0.0468750055879354,
1861,0.43,-0.0156250018626451,
1862,0.4305,-0.0156250018626451,
1863,0.431,0,
1864,0.4315,-0.0312500037252903,
1865,0.432,-0.0156250018626451,
1866,0.4325,-0.0156250018626451,
1867,0.433,-0.0312500037252903,
1868,0.4335,0,
1869,0.434,-0.0156250018626451,
1870,0.4345,0.0156250018626451,
1871,0.435,-0.0156250018626451,
1872,0.4355,0,
1873,0.436,-0.0156250018626451,
1874,0.4365,-0.0156250018626451,
1875,0.437,0,
1876,0.4375,-0.0468750055879354,
1877,0.438,0,
1878,0.4385,-0.0468750055879354,
1879,0.439,0,
1880,0.4395,-0.0312500037252903,
1881,0.44,-0.0312500037252903,
1882,0.4405,-0.0312500037252903,
1883,0.441,-0.0312500037252903,
1884,0.4415,-0.0468750055879354,
1885,0.442,-0.0312500037252903,
1886,0.4425,-0.0312500037252903,
1887,0.443,-0.0468750055879354,
1888,0.4435,-0.0468750055879354,
1889,0.444,-0.0312500037252903,
1890,0.4445,-0.0468750055879354,
1891,0.445,-0.0156250018626451,
1892,0.4455,-0.0312500037252903,
1893,0.446,-0.0625000074505806,
1894,0.4465,-0.0468750055879354,
1895,0.447,-0.0156250018626451,
1896,0.4475,-0.0312500037252903,
1897,0.448,-0.0312500037252903,
1898,0.4485,0,
1899,0.449,-0.0156250018626451,
1900,0.4495,0,
1901,0.45,-0.0156250018626451,
1902,0.4505,0,
1903,0.451,0,
1904,0.4515,-0.0312500037252903,
1905,0.452,-0.0312500037252903,
1906,0.4525,0.0156250018626451,
1907,0.453,-0.0156250018626451,
1908,0.4535,0.0156250018626451,
1909,0.454,-0.0312500037252903,
1910,0.4545,-0.0312500037252903,
1911,0.455,-0.0312500037252903,
1912,0.4555,-0.0312500037252903,
1913,0.456,-0.0156250018626451,
1914,0.4565,-0.0312500037252903,
1915,0.457,-0.0312500037252903,
1916,0.4575,-0.0156250018626451,
1917,0.458,-0.0156250018626451,
1918,0.4585,-0.0156250018626451,
1919,0.459,-0.0312500037252903,
1920,0.4595,0,
1921,0.46,-0.0468750055879354,
1922,0.4605,-0.0312500037252903,
1923,0.461,-0.0312500037252903,
1924,0.4615,-0.0156250018626451,
1925,0.462,-0.0625000074505806,
1926,0.4625,-0.0156250018626451,
1927,0.463,-0.0468750055879354,
1928,0.4635,-0.0468750055879354,
1929,0.464,0,
1930,0.4645,-0.0156250018626451,
1931,0.465,-0.0156250018626451,
1932,0.4655,-0.0312500037252903,
1933,0.466,-0.0312500037252903,
1934,0.4665,-0.0156250018626451,
1935,0.467,-0.0312500037252903,
1936,0.4675,-0.0312500037252903,
1937,0.468,0,
1938,0.4685,-0.0156250018626451,
1939,0.469,-0.0156250018626451,
1940,0.4695,-0.0156250018626451,
1941,0.47,-0.0156250018626451,
1942,0.4705,-0.0468750055879354,
1943,0.471,-0.0312500037252903,
1944,0.4715,-0.0468750055879354,
1945,0.472,-0.0312500037252903,
1946,0.4725,-0.0468750055879354,
1947,0.473,-0.0312500037252903,
1948,0.4735,-0.0312500037252903,
1949,0.474,-0.0312500037252903,
1950,0.4745,-0.0156250018626451,
1951,0.475,-0.0156250018626451,
1952,0.4755,-0.0156250018626451,
1953,0.476,-0.0312500037252903,
1954,0.4765,-0.0312500037252903,
1955,0.477,-0.0312500037252903,
1956,0.4775,-0.0312500037252903,
1957,0.478,-0.0312500037252903,
1958,0.4785,-0.0625000074505806,
1959,0.479,0,
1960,0.4795,-0.0312500037252903,
1961,0.48,-0.0156250018626451,
1962,0.4805,-0.0312500037252903,
1963,0.481,-0.0468750055879354,
1964,0.4815,-0.0312500037252903,
1965,0.482,0,
1966,0.4825,0,
1967,0.483,-0.0156250018626451,
1968,0.4835,-0.0156250018626451,
1969,0.484,0,
1970,0.4845,0,
1971,0.485,-0.0312500037252903,
1972,0.4855,0.0156250018626451,
1973,0.486,-0.0156250018626451,
1974,0.4865,-0.0312500037252903,
1975,0.487,0,
1976,0.4875,0,
1977,0.488,-0.0312500037252903,
1978,0.4885,-0.0156250018626451,
1979,0.489,-0.0312500037252903,
1980,0.4895,-0.0312500037252903,
1981,0.49,-0.0156250018626451,
1982,0.4905,-0.0156250018626451,
1983,0.491,-0.0312500037252903,
1984,0.4915,-0.0156250018626451,
1985,0.492,0.0156250018626451,
1986,0.4925,-0.0312500037252903,
1987,0.493,-0.0468750055879354,
1988,0.4935,-0.0468750055879354,
1989,0.494,-0.0468750055879354,
1990,0.4945,-0.0312500037252903,
1991,0.495,-0.0312500037252903,
1992,0.4955,-0.0468750055879354,
1993,0.496,-0.0312500037252903,
1994,0.4965,-0.0156250018626451,
1995,0.497,-0.0312500037252903,
1996,0.4975,-0.0312500037252903,
1997,0.498,-0.0312500037252903,
1998,0.4985,-0.0156250018626451,
1999,0.499,0,
2000,0.4995,-0.0312500037252903,
